sim/testbench_3.vcd
$date
	Mon Dec  5 16:04:51 2022
$end
$version
	Icarus Verilog
$end
$timescale
	1ps
$end
$scope module testbench_3 $end
$var wire 9 ! top_edge [8:0] $end
$var wire 8 " right_edge [7:0] $end
$var wire 16 # pixel_data_corner [15:0] $end
$var wire 16 $ pixel_data [15:0] $end
$var wire 8 % left_edge [7:0] $end
$var wire 1 & data_valid_out_suit_rank $end
$var wire 1 ' data_valid_out $end
$var wire 8 ( corner_width [7:0] $end
$var wire 9 ) corner_height [8:0] $end
$var wire 9 * bot_edge [8:0] $end
$var wire 17 + addr_out [16:0] $end
$var wire 17 , addr [16:0] $end
$var reg 1 - clk $end
$var reg 1 . find_corners_flag $end
$var reg 9 / index [8:0] $end
$var reg 9 0 index_pipe [8:0] $end
$var reg 16 1 pixel_data_pipe_corner [15:0] $end
$var reg 1 2 rst $end
$scope module card_input $end
$var wire 1 - clka $end
$var wire 16 3 dina [15:0] $end
$var wire 1 4 ena $end
$var wire 1 5 regcea $end
$var wire 1 2 rsta $end
$var wire 1 6 wea $end
$var wire 16 7 douta [15:0] $end
$var wire 17 8 addra [16:0] $end
$var reg 16 9 ram_data [15:0] $end
$scope function clogb2 $end
$var integer 32 : depth [31:0] $end
$upscope $end
$scope begin no_output_register $end
$upscope $end
$scope begin use_init_file $end
$upscope $end
$upscope $end
$scope module corner_finder $end
$var wire 1 - clk_in $end
$var wire 1 . find_corners_flag $end
$var wire 16 ; pixel_data_in [15:0] $end
$var wire 1 2 rst_in $end
$var wire 8 < x_center [7:0] $end
$var wire 9 = y_center [8:0] $end
$var wire 1 > pixel_data_in_thresh $end
$var reg 17 ? addr_out [16:0] $end
$var reg 9 @ bot_edge [8:0] $end
$var reg 1 A check_flag_bot $end
$var reg 1 B check_flag_left $end
$var reg 1 C check_flag_right $end
$var reg 1 D check_flag_top $end
$var reg 1 ' data_valid_out $end
$var reg 1 E delay_flag $end
$var reg 1 F end_flag $end
$var reg 1 G find_corners_flag_old $end
$var reg 8 H index_x [7:0] $end
$var reg 9 I index_y [8:0] $end
$var reg 8 J left_edge [7:0] $end
$var reg 240 K line_cache_rst_x [239:0] $end
$var reg 320 L line_cache_rst_y [319:0] $end
$var reg 240 M line_cache_x [239:0] $end
$var reg 320 N line_cache_y [319:0] $end
$var reg 8 O right_edge [7:0] $end
$var reg 9 P shift_reg_height [8:0] $end
$var reg 8 Q shift_reg_width [7:0] $end
$var reg 1 R start_flag_x $end
$var reg 1 S start_flag_y $end
$var reg 9 T top_edge [8:0] $end
$upscope $end
$scope module corner_grabber $end
$var wire 1 - clka $end
$var wire 16 U dina [15:0] $end
$var wire 1 V ena $end
$var wire 1 W regcea $end
$var wire 1 2 rsta $end
$var wire 1 X wea $end
$var wire 16 Y douta [15:0] $end
$var wire 17 Z addra [16:0] $end
$var reg 16 [ ram_data [15:0] $end
$scope function clogb2 $end
$var integer 32 \ depth [31:0] $end
$upscope $end
$scope begin no_output_register $end
$upscope $end
$scope begin use_init_file $end
$upscope $end
$upscope $end
$scope module suit_rank $end
$var wire 9 ] bot_edge [8:0] $end
$var wire 1 - clk_in $end
$var wire 8 ^ left_edge [7:0] $end
$var wire 8 _ right_edge [7:0] $end
$var wire 1 2 rst_in $end
$var wire 1 ' start_flag $end
$var wire 9 ` top_edge [8:0] $end
$var wire 9 a y_width [8:0] $end
$var wire 8 b x_width [7:0] $end
$var wire 8 c corner_width [7:0] $end
$var wire 9 d corner_height [8:0] $end
$var reg 17 e addr_out [16:0] $end
$var reg 1 & data_valid_out $end
$var reg 1 f end_flag $end
$var reg 8 g index_x [7:0] $end
$var reg 9 h index_y [8:0] $end
$var reg 1 i math_flag $end
$var reg 1 j start_flag_old $end
$upscope $end
$scope begin blockName $end
$upscope $end
$upscope $end
$enddefinitions $end
#0
$dumpvars
xj
xi
bx h
bx g
xf
bx e
bx d
bx c
bx b
bx a
bx `
bx _
bx ^
bx ]
bx \
bx [
bx Z
bx Y
0X
1W
1V
b0 U
bx T
0S
0R
bx Q
bx P
bx O
bx N
bx M
bx L
bx K
bx J
bx I
bx H
0G
0F
0E
0D
0C
0B
0A
bx @
bx ?
x>
b10011001 =
b1110010 <
bx ;
bx :
bx 9
bx 8
bx 7
06
15
14
b0 3
02
bx 1
b0 0
b0 /
0.
1-
bx ,
bx +
bx *
bx )
bx (
x'
x&
bx %
bx $
bx #
bx "
bx !
$end
#5000
0-
#10000
b0 )
b0 d
b0 (
b0 c
b0 h
b0 g
0f
0i
b0 +
b0 Z
b0 e
0&
b0 Q
b0 P
b0 ,
b0 8
b0 ?
0'
b0 I
b0 H
b0 L
b0 N
b0 K
b0 M
b0 a
b0 *
b0 @
b0 ]
b0 !
b0 T
b0 `
b0 b
b0 %
b0 J
b0 ^
b0 "
b0 O
b0 _
1-
12
#15000
0-
#20000
0>
b0 $
b0 7
b0 9
b0 ;
b0 #
b0 Y
b0 [
0j
1-
02
#25000
0-
#30000
b100111111 I
b11101111 H
b1000111101110000 ,
b1000111101110000 8
b1000111101110000 ?
1E
1G
1-
1.
#35000
0-
#40000
0E
1R
0G
1-
0.
#45000
0-
#50000
b11101110 H
b1000111101110001 ,
b1000111101110001 8
b1000111101110001 ?
1-
#55000
0-
#60000
b11101101 H
b1000111101110010 ,
b1000111101110010 8
b1000111101110010 ?
1-
#65000
0-
#70000
b11101100 H
b1000111101110011 ,
b1000111101110011 8
b1000111101110011 ?
1-
#75000
0-
#80000
b11101011 H
b1000111101110100 ,
b1000111101110100 8
b1000111101110100 ?
1-
#85000
0-
#90000
b11101010 H
b1000111101110101 ,
b1000111101110101 8
b1000111101110101 ?
1-
#95000
0-
#100000
b11101001 H
b1000111101110110 ,
b1000111101110110 8
b1000111101110110 ?
1-
#105000
0-
#110000
b11101000 H
b1000111101110111 ,
b1000111101110111 8
b1000111101110111 ?
1-
#115000
0-
#120000
b11100111 H
b1000111101111000 ,
b1000111101111000 8
b1000111101111000 ?
1-
#125000
0-
#130000
b11100110 H
b1000111101111001 ,
b1000111101111001 8
b1000111101111001 ?
1-
#135000
0-
#140000
b11100101 H
b1000111101111010 ,
b1000111101111010 8
b1000111101111010 ?
1-
#145000
0-
#150000
b11100100 H
b1000111101111011 ,
b1000111101111011 8
b1000111101111011 ?
1-
#155000
0-
#160000
b11100011 H
b1000111101111100 ,
b1000111101111100 8
b1000111101111100 ?
1-
#165000
0-
#170000
b11100010 H
b1000111101111101 ,
b1000111101111101 8
b1000111101111101 ?
1-
#175000
0-
#180000
b11100001 H
b1000111101111110 ,
b1000111101111110 8
b1000111101111110 ?
1-
#185000
0-
#190000
b11100000 H
b1000111101111111 ,
b1000111101111111 8
b1000111101111111 ?
1-
#195000
0-
#200000
b11011111 H
b1000111110000000 ,
b1000111110000000 8
b1000111110000000 ?
1-
#205000
0-
#210000
b11011110 H
b1000111110000001 ,
b1000111110000001 8
b1000111110000001 ?
1-
#215000
0-
#220000
b11011101 H
b1000111110000010 ,
b1000111110000010 8
b1000111110000010 ?
1-
#225000
0-
#230000
b11011100 H
b1000111110000011 ,
b1000111110000011 8
b1000111110000011 ?
1-
#235000
0-
#240000
b11011011 H
b1000111110000100 ,
b1000111110000100 8
b1000111110000100 ?
1-
#245000
0-
#250000
b11011010 H
b1000111110000101 ,
b1000111110000101 8
b1000111110000101 ?
1-
#255000
0-
#260000
b11011001 H
b1000111110000110 ,
b1000111110000110 8
b1000111110000110 ?
1-
#265000
0-
#270000
b11011000 H
b1000111110000111 ,
b1000111110000111 8
b1000111110000111 ?
1-
#275000
0-
#280000
b11010111 H
b1000111110001000 ,
b1000111110001000 8
b1000111110001000 ?
1-
#285000
0-
#290000
b11010110 H
b1000111110001001 ,
b1000111110001001 8
b1000111110001001 ?
1-
#295000
0-
#300000
b11010101 H
b1000111110001010 ,
b1000111110001010 8
b1000111110001010 ?
1-
#305000
0-
#310000
b11010100 H
b1000111110001011 ,
b1000111110001011 8
b1000111110001011 ?
1-
#315000
0-
#320000
b11010011 H
b1000111110001100 ,
b1000111110001100 8
b1000111110001100 ?
1-
#325000
0-
#330000
b11010010 H
b1000111110001101 ,
b1000111110001101 8
b1000111110001101 ?
1-
#335000
0-
#340000
b11010001 H
b1000111110001110 ,
b1000111110001110 8
b1000111110001110 ?
1-
#345000
0-
#350000
b11010000 H
b1000111110001111 ,
b1000111110001111 8
b1000111110001111 ?
1-
#355000
0-
#360000
b11001111 H
b1000111110010000 ,
b1000111110010000 8
b1000111110010000 ?
1-
#365000
0-
#370000
b11001110 H
b1000111110010001 ,
b1000111110010001 8
b1000111110010001 ?
1-
#375000
0-
#380000
b11001101 H
b1000111110010010 ,
b1000111110010010 8
b1000111110010010 ?
1-
#385000
0-
#390000
b11001100 H
b1000111110010011 ,
b1000111110010011 8
b1000111110010011 ?
1-
#395000
0-
#400000
b11001011 H
b1000111110010100 ,
b1000111110010100 8
b1000111110010100 ?
1-
#405000
0-
#410000
b11001010 H
b1000111110010101 ,
b1000111110010101 8
b1000111110010101 ?
1-
#415000
0-
#420000
b11001001 H
b1000111110010110 ,
b1000111110010110 8
b1000111110010110 ?
1-
#425000
0-
#430000
b11001000 H
b1000111110010111 ,
b1000111110010111 8
b1000111110010111 ?
1-
#435000
0-
#440000
b11000111 H
b1000111110011000 ,
b1000111110011000 8
b1000111110011000 ?
1-
#445000
0-
#450000
b11000110 H
b1000111110011001 ,
b1000111110011001 8
b1000111110011001 ?
1-
#455000
0-
#460000
b11000101 H
b1000111110011010 ,
b1000111110011010 8
b1000111110011010 ?
1-
#465000
0-
#470000
b11000100 H
b1000111110011011 ,
b1000111110011011 8
b1000111110011011 ?
1-
#475000
0-
#480000
b11000011 H
b1000111110011100 ,
b1000111110011100 8
b1000111110011100 ?
1-
#485000
0-
#490000
b11000010 H
b1000111110011101 ,
b1000111110011101 8
b1000111110011101 ?
1-
#495000
0-
#500000
b11000001 H
b1000111110011110 ,
b1000111110011110 8
b1000111110011110 ?
1-
#505000
0-
#510000
b11000000 H
b1000111110011111 ,
b1000111110011111 8
b1000111110011111 ?
1-
#515000
0-
#520000
b10111111 H
b1000111110100000 ,
b1000111110100000 8
b1000111110100000 ?
1-
#525000
0-
#530000
b10111110 H
b1000111110100001 ,
b1000111110100001 8
b1000111110100001 ?
1-
#535000
0-
#540000
b10111101 H
b1000111110100010 ,
b1000111110100010 8
b1000111110100010 ?
1-
#545000
0-
#550000
b10111100 H
b1000111110100011 ,
b1000111110100011 8
b1000111110100011 ?
1-
#555000
0-
#560000
b10111011 H
b1000111110100100 ,
b1000111110100100 8
b1000111110100100 ?
1-
#565000
0-
#570000
b10111010 H
b1000111110100101 ,
b1000111110100101 8
b1000111110100101 ?
1-
#575000
0-
#580000
b10111001 H
b1000111110100110 ,
b1000111110100110 8
b1000111110100110 ?
1-
#585000
0-
#590000
b10111000 H
b1000111110100111 ,
b1000111110100111 8
b1000111110100111 ?
1-
#595000
0-
#600000
b10110111 H
b1000111110101000 ,
b1000111110101000 8
b1000111110101000 ?
1-
#605000
0-
#610000
b10110110 H
b1000111110101001 ,
b1000111110101001 8
b1000111110101001 ?
1-
#615000
0-
#620000
b10110101 H
b1000111110101010 ,
b1000111110101010 8
b1000111110101010 ?
1-
#625000
0-
#630000
b10110100 H
b1000111110101011 ,
b1000111110101011 8
b1000111110101011 ?
1-
#635000
0-
#640000
b10110011 H
b1000111110101100 ,
b1000111110101100 8
b1000111110101100 ?
1-
#645000
0-
#650000
b10110010 H
b1000111110101101 ,
b1000111110101101 8
b1000111110101101 ?
1-
#655000
0-
#660000
b10110001 H
b1000111110101110 ,
b1000111110101110 8
b1000111110101110 ?
1-
#665000
0-
#670000
b10110000 H
b1000111110101111 ,
b1000111110101111 8
b1000111110101111 ?
1-
#675000
0-
#680000
b10101111 H
b1000111110110000 ,
b1000111110110000 8
b1000111110110000 ?
1-
#685000
0-
#690000
b10101110 H
b1000111110110001 ,
b1000111110110001 8
b1000111110110001 ?
1-
#695000
0-
#700000
b10101101 H
b1000111110110010 ,
b1000111110110010 8
b1000111110110010 ?
1-
#705000
0-
#710000
b10101100 H
b1000111110110011 ,
b1000111110110011 8
b1000111110110011 ?
1-
#715000
0-
#720000
b10101011 H
b1000111110110100 ,
b1000111110110100 8
b1000111110110100 ?
1-
#725000
0-
#730000
b10101010 H
b1000111110110101 ,
b1000111110110101 8
b1000111110110101 ?
1-
#735000
0-
#740000
b10101001 H
b1000111110110110 ,
b1000111110110110 8
b1000111110110110 ?
1-
#745000
0-
#750000
b10101000 H
b1000111110110111 ,
b1000111110110111 8
b1000111110110111 ?
1-
#755000
0-
#760000
b10100111 H
b1000111110111000 ,
b1000111110111000 8
b1000111110111000 ?
1-
#765000
0-
#770000
b10100110 H
b1000111110111001 ,
b1000111110111001 8
b1000111110111001 ?
1-
#775000
0-
#780000
b10100101 H
b1000111110111010 ,
b1000111110111010 8
b1000111110111010 ?
1-
#785000
0-
#790000
b10100100 H
b1000111110111011 ,
b1000111110111011 8
b1000111110111011 ?
1-
#795000
0-
#800000
b10100011 H
b1000111110111100 ,
b1000111110111100 8
b1000111110111100 ?
1-
#805000
0-
#810000
b10100010 H
b1000111110111101 ,
b1000111110111101 8
b1000111110111101 ?
1-
#815000
0-
#820000
b10100001 H
b1000111110111110 ,
b1000111110111110 8
b1000111110111110 ?
1-
#825000
0-
#830000
b10100000 H
b1000111110111111 ,
b1000111110111111 8
b1000111110111111 ?
1-
#835000
0-
#840000
b10011111 H
b1000111111000000 ,
b1000111111000000 8
b1000111111000000 ?
1-
#845000
0-
#850000
b10011110 H
b1000111111000001 ,
b1000111111000001 8
b1000111111000001 ?
1-
#855000
0-
#860000
b10011101 H
b1000111111000010 ,
b1000111111000010 8
b1000111111000010 ?
1-
#865000
0-
#870000
b10011100 H
b1000111111000011 ,
b1000111111000011 8
b1000111111000011 ?
1-
#875000
0-
#880000
b10011011 H
b1000111111000100 ,
b1000111111000100 8
b1000111111000100 ?
1-
#885000
0-
#890000
b10011010 H
b1000111111000101 ,
b1000111111000101 8
b1000111111000101 ?
1-
#895000
0-
#900000
b10011001 H
b1000111111000110 ,
b1000111111000110 8
b1000111111000110 ?
1-
#905000
0-
#910000
b10011000 H
b1000111111000111 ,
b1000111111000111 8
b1000111111000111 ?
1-
#915000
0-
#920000
b10010111 H
b1000111111001000 ,
b1000111111001000 8
b1000111111001000 ?
1-
#925000
0-
#930000
b10010110 H
b1000111111001001 ,
b1000111111001001 8
b1000111111001001 ?
1-
#935000
0-
#940000
b10010101 H
b1000111111001010 ,
b1000111111001010 8
b1000111111001010 ?
1-
#945000
0-
#950000
b10010100 H
b1000111111001011 ,
b1000111111001011 8
b1000111111001011 ?
1>
b11111111 $
b11111111 7
b11111111 9
b11111111 ;
1-
#955000
0-
#960000
b10010011 H
b10000000000000000000000000000000000000000000000000000000000000000000000000000000000000000000000000000000000000000000000000000000000000000000000000000 K
b10000000000000000000000000000000000000000000000000000000000000000000000000000000000000000000000000000000000000000000000000000000000000000000000000000 M
b1000111111001100 ,
b1000111111001100 8
b1000111111001100 ?
1-
#965000
0-
#970000
b10010010 H
b11000000000000000000000000000000000000000000000000000000000000000000000000000000000000000000000000000000000000000000000000000000000000000000000000000 K
b11000000000000000000000000000000000000000000000000000000000000000000000000000000000000000000000000000000000000000000000000000000000000000000000000000 M
b1000111111001101 ,
b1000111111001101 8
b1000111111001101 ?
1-
#975000
0-
#980000
b10010001 H
b11100000000000000000000000000000000000000000000000000000000000000000000000000000000000000000000000000000000000000000000000000000000000000000000000000 K
b11100000000000000000000000000000000000000000000000000000000000000000000000000000000000000000000000000000000000000000000000000000000000000000000000000 M
b1000111111001110 ,
b1000111111001110 8
b1000111111001110 ?
1-
#985000
0-
#990000
b10010000 H
b11110000000000000000000000000000000000000000000000000000000000000000000000000000000000000000000000000000000000000000000000000000000000000000000000000 K
b11110000000000000000000000000000000000000000000000000000000000000000000000000000000000000000000000000000000000000000000000000000000000000000000000000 M
b1000111111001111 ,
b1000111111001111 8
b1000111111001111 ?
1-
#995000
0-
#1000000
b10001111 H
b11111000000000000000000000000000000000000000000000000000000000000000000000000000000000000000000000000000000000000000000000000000000000000000000000000 K
b11111000000000000000000000000000000000000000000000000000000000000000000000000000000000000000000000000000000000000000000000000000000000000000000000000 M
b1000111111010000 ,
b1000111111010000 8
b1000111111010000 ?
1-
#1005000
0-
#1010000
b10001110 H
b11111100000000000000000000000000000000000000000000000000000000000000000000000000000000000000000000000000000000000000000000000000000000000000000000000 K
b11111100000000000000000000000000000000000000000000000000000000000000000000000000000000000000000000000000000000000000000000000000000000000000000000000 M
b1000111111010001 ,
b1000111111010001 8
b1000111111010001 ?
1-
#1015000
0-
#1020000
b10001101 H
b11111110000000000000000000000000000000000000000000000000000000000000000000000000000000000000000000000000000000000000000000000000000000000000000000000 K
b11111110000000000000000000000000000000000000000000000000000000000000000000000000000000000000000000000000000000000000000000000000000000000000000000000 M
b1000111111010010 ,
b1000111111010010 8
b1000111111010010 ?
1-
#1025000
0-
#1030000
b10001100 H
b11111111000000000000000000000000000000000000000000000000000000000000000000000000000000000000000000000000000000000000000000000000000000000000000000000 K
b11111111000000000000000000000000000000000000000000000000000000000000000000000000000000000000000000000000000000000000000000000000000000000000000000000 M
b1000111111010011 ,
b1000111111010011 8
b1000111111010011 ?
1-
#1035000
0-
#1040000
b10001011 H
b11111111100000000000000000000000000000000000000000000000000000000000000000000000000000000000000000000000000000000000000000000000000000000000000000000 K
b11111111100000000000000000000000000000000000000000000000000000000000000000000000000000000000000000000000000000000000000000000000000000000000000000000 M
b1000111111010100 ,
b1000111111010100 8
b1000111111010100 ?
1-
#1045000
0-
#1050000
b10001010 H
b11111111110000000000000000000000000000000000000000000000000000000000000000000000000000000000000000000000000000000000000000000000000000000000000000000 K
b11111111110000000000000000000000000000000000000000000000000000000000000000000000000000000000000000000000000000000000000000000000000000000000000000000 M
b1000111111010101 ,
b1000111111010101 8
b1000111111010101 ?
1-
#1055000
0-
#1060000
b10001001 H
b11111111111000000000000000000000000000000000000000000000000000000000000000000000000000000000000000000000000000000000000000000000000000000000000000000 K
b11111111111000000000000000000000000000000000000000000000000000000000000000000000000000000000000000000000000000000000000000000000000000000000000000000 M
b1000111111010110 ,
b1000111111010110 8
b1000111111010110 ?
1-
#1065000
0-
#1070000
b10001000 H
b11111111111100000000000000000000000000000000000000000000000000000000000000000000000000000000000000000000000000000000000000000000000000000000000000000 K
b11111111111100000000000000000000000000000000000000000000000000000000000000000000000000000000000000000000000000000000000000000000000000000000000000000 M
b1000111111010111 ,
b1000111111010111 8
b1000111111010111 ?
1-
#1075000
0-
#1080000
b10000111 H
b11111111111110000000000000000000000000000000000000000000000000000000000000000000000000000000000000000000000000000000000000000000000000000000000000000 K
b11111111111110000000000000000000000000000000000000000000000000000000000000000000000000000000000000000000000000000000000000000000000000000000000000000 M
b1000111111011000 ,
b1000111111011000 8
b1000111111011000 ?
1-
#1085000
0-
#1090000
b10000110 H
b11111111111111000000000000000000000000000000000000000000000000000000000000000000000000000000000000000000000000000000000000000000000000000000000000000 K
b11111111111111000000000000000000000000000000000000000000000000000000000000000000000000000000000000000000000000000000000000000000000000000000000000000 M
b1000111111011001 ,
b1000111111011001 8
b1000111111011001 ?
1-
#1095000
0-
#1100000
b10000101 H
b11111111111111100000000000000000000000000000000000000000000000000000000000000000000000000000000000000000000000000000000000000000000000000000000000000 K
b11111111111111100000000000000000000000000000000000000000000000000000000000000000000000000000000000000000000000000000000000000000000000000000000000000 M
b1000111111011010 ,
b1000111111011010 8
b1000111111011010 ?
1-
#1105000
0-
#1110000
b10000100 H
b11111111111111110000000000000000000000000000000000000000000000000000000000000000000000000000000000000000000000000000000000000000000000000000000000000 K
b11111111111111110000000000000000000000000000000000000000000000000000000000000000000000000000000000000000000000000000000000000000000000000000000000000 M
b1000111111011011 ,
b1000111111011011 8
b1000111111011011 ?
1-
#1115000
0-
#1120000
b10000011 H
b11111111111111111000000000000000000000000000000000000000000000000000000000000000000000000000000000000000000000000000000000000000000000000000000000000 K
b11111111111111111000000000000000000000000000000000000000000000000000000000000000000000000000000000000000000000000000000000000000000000000000000000000 M
b1000111111011100 ,
b1000111111011100 8
b1000111111011100 ?
1-
#1125000
0-
#1130000
b10000010 H
b11111111111111111100000000000000000000000000000000000000000000000000000000000000000000000000000000000000000000000000000000000000000000000000000000000 K
b11111111111111111100000000000000000000000000000000000000000000000000000000000000000000000000000000000000000000000000000000000000000000000000000000000 M
b1000111111011101 ,
b1000111111011101 8
b1000111111011101 ?
1-
#1135000
0-
#1140000
b10000001 H
b11111111111111111110000000000000000000000000000000000000000000000000000000000000000000000000000000000000000000000000000000000000000000000000000000000 K
b11111111111111111110000000000000000000000000000000000000000000000000000000000000000000000000000000000000000000000000000000000000000000000000000000000 M
b1000111111011110 ,
b1000111111011110 8
b1000111111011110 ?
1-
#1145000
0-
#1150000
b10000000 H
b11111111111111111111000000000000000000000000000000000000000000000000000000000000000000000000000000000000000000000000000000000000000000000000000000000 K
b11111111111111111111000000000000000000000000000000000000000000000000000000000000000000000000000000000000000000000000000000000000000000000000000000000 M
b1000111111011111 ,
b1000111111011111 8
b1000111111011111 ?
1-
#1155000
0-
#1160000
b1111111 H
b11111111111111111111100000000000000000000000000000000000000000000000000000000000000000000000000000000000000000000000000000000000000000000000000000000 K
b11111111111111111111100000000000000000000000000000000000000000000000000000000000000000000000000000000000000000000000000000000000000000000000000000000 M
b1000111111100000 ,
b1000111111100000 8
b1000111111100000 ?
1-
#1165000
0-
#1170000
b1111110 H
b11111111111111111111110000000000000000000000000000000000000000000000000000000000000000000000000000000000000000000000000000000000000000000000000000000 K
b11111111111111111111110000000000000000000000000000000000000000000000000000000000000000000000000000000000000000000000000000000000000000000000000000000 M
b1000111111100001 ,
b1000111111100001 8
b1000111111100001 ?
1-
#1175000
0-
#1180000
b1111101 H
b11111111111111111111111000000000000000000000000000000000000000000000000000000000000000000000000000000000000000000000000000000000000000000000000000000 K
b11111111111111111111111000000000000000000000000000000000000000000000000000000000000000000000000000000000000000000000000000000000000000000000000000000 M
b1000111111100010 ,
b1000111111100010 8
b1000111111100010 ?
1-
#1185000
0-
#1190000
b1111100 H
b11111111111111111111111100000000000000000000000000000000000000000000000000000000000000000000000000000000000000000000000000000000000000000000000000000 K
b11111111111111111111111100000000000000000000000000000000000000000000000000000000000000000000000000000000000000000000000000000000000000000000000000000 M
b1000111111100011 ,
b1000111111100011 8
b1000111111100011 ?
1-
#1195000
0-
#1200000
b1111011 H
b11111111111111111111111110000000000000000000000000000000000000000000000000000000000000000000000000000000000000000000000000000000000000000000000000000 K
b11111111111111111111111110000000000000000000000000000000000000000000000000000000000000000000000000000000000000000000000000000000000000000000000000000 M
b1000111111100100 ,
b1000111111100100 8
b1000111111100100 ?
1-
#1205000
0-
#1210000
b1111010 H
b11111111111111111111111111000000000000000000000000000000000000000000000000000000000000000000000000000000000000000000000000000000000000000000000000000 K
b11111111111111111111111111000000000000000000000000000000000000000000000000000000000000000000000000000000000000000000000000000000000000000000000000000 M
b1000111111100101 ,
b1000111111100101 8
b1000111111100101 ?
1-
#1215000
0-
#1220000
b1111001 H
b11111111111111111111111111100000000000000000000000000000000000000000000000000000000000000000000000000000000000000000000000000000000000000000000000000 K
b11111111111111111111111111100000000000000000000000000000000000000000000000000000000000000000000000000000000000000000000000000000000000000000000000000 M
b1000111111100110 ,
b1000111111100110 8
b1000111111100110 ?
1-
#1225000
0-
#1230000
b1111000 H
b11111111111111111111111111110000000000000000000000000000000000000000000000000000000000000000000000000000000000000000000000000000000000000000000000000 K
b11111111111111111111111111110000000000000000000000000000000000000000000000000000000000000000000000000000000000000000000000000000000000000000000000000 M
b1000111111100111 ,
b1000111111100111 8
b1000111111100111 ?
0>
b0 $
b0 7
b0 9
b0 ;
1-
#1235000
0-
#1240000
b1110111 H
b1000111111101000 ,
b1000111111101000 8
b1000111111101000 ?
1-
#1245000
0-
#1250000
b1110110 H
b1000111111101001 ,
b1000111111101001 8
b1000111111101001 ?
1-
#1255000
0-
#1260000
b1110101 H
b1000111111101010 ,
b1000111111101010 8
b1000111111101010 ?
1-
#1265000
0-
#1270000
b1110100 H
b1000111111101011 ,
b1000111111101011 8
b1000111111101011 ?
1-
#1275000
0-
#1280000
b1110011 H
b1000111111101100 ,
b1000111111101100 8
b1000111111101100 ?
1-
#1285000
0-
#1290000
b1110010 H
b1000111111101101 ,
b1000111111101101 8
b1000111111101101 ?
1-
#1295000
0-
#1300000
b1110001 H
b1000111111101110 ,
b1000111111101110 8
b1000111111101110 ?
1-
#1305000
0-
#1310000
b1110000 H
b1000111111101111 ,
b1000111111101111 8
b1000111111101111 ?
1-
#1315000
0-
#1320000
1>
b11111111 $
b11111111 7
b11111111 9
b11111111 ;
b1101111 H
b1000111111110000 ,
b1000111111110000 8
b1000111111110000 ?
1-
#1325000
0-
#1330000
b1101110 H
b11111111111111111111111111110000000001000000000000000000000000000000000000000000000000000000000000000000000000000000000000000000000000000000000000000 K
b11111111111111111111111111110000000001000000000000000000000000000000000000000000000000000000000000000000000000000000000000000000000000000000000000000 M
b1000111111110001 ,
b1000111111110001 8
b1000111111110001 ?
1-
#1335000
0-
#1340000
b1101101 H
b11111111111111111111111111110000000001100000000000000000000000000000000000000000000000000000000000000000000000000000000000000000000000000000000000000 K
b11111111111111111111111111110000000001100000000000000000000000000000000000000000000000000000000000000000000000000000000000000000000000000000000000000 M
b1000111111110010 ,
b1000111111110010 8
b1000111111110010 ?
1-
#1345000
0-
#1350000
b1101100 H
b11111111111111111111111111110000000001110000000000000000000000000000000000000000000000000000000000000000000000000000000000000000000000000000000000000 K
b11111111111111111111111111110000000001110000000000000000000000000000000000000000000000000000000000000000000000000000000000000000000000000000000000000 M
b1000111111110011 ,
b1000111111110011 8
b1000111111110011 ?
1-
#1355000
0-
#1360000
b1101011 H
b11111111111111111111111111110000000001111000000000000000000000000000000000000000000000000000000000000000000000000000000000000000000000000000000000000 K
b11111111111111111111111111110000000001111000000000000000000000000000000000000000000000000000000000000000000000000000000000000000000000000000000000000 M
b1000111111110100 ,
b1000111111110100 8
b1000111111110100 ?
1-
#1365000
0-
#1370000
b1101010 H
b11111111111111111111111111110000000001111100000000000000000000000000000000000000000000000000000000000000000000000000000000000000000000000000000000000 K
b11111111111111111111111111110000000001111100000000000000000000000000000000000000000000000000000000000000000000000000000000000000000000000000000000000 M
b1000111111110101 ,
b1000111111110101 8
b1000111111110101 ?
1-
#1375000
0-
#1380000
b1101001 H
b11111111111111111111111111110000000001111110000000000000000000000000000000000000000000000000000000000000000000000000000000000000000000000000000000000 K
b11111111111111111111111111110000000001111110000000000000000000000000000000000000000000000000000000000000000000000000000000000000000000000000000000000 M
b1000111111110110 ,
b1000111111110110 8
b1000111111110110 ?
1-
#1385000
0-
#1390000
b1101000 H
b11111111111111111111111111110000000001111111000000000000000000000000000000000000000000000000000000000000000000000000000000000000000000000000000000000 K
b11111111111111111111111111110000000001111111000000000000000000000000000000000000000000000000000000000000000000000000000000000000000000000000000000000 M
b1000111111110111 ,
b1000111111110111 8
b1000111111110111 ?
1-
#1395000
0-
#1400000
b1100111 H
b11111111111111111111111111110000000001111111100000000000000000000000000000000000000000000000000000000000000000000000000000000000000000000000000000000 K
b11111111111111111111111111110000000001111111100000000000000000000000000000000000000000000000000000000000000000000000000000000000000000000000000000000 M
b1000111111111000 ,
b1000111111111000 8
b1000111111111000 ?
1-
#1405000
0-
#1410000
b1100110 H
b11111111111111111111111111110000000001111111110000000000000000000000000000000000000000000000000000000000000000000000000000000000000000000000000000000 K
b11111111111111111111111111110000000001111111110000000000000000000000000000000000000000000000000000000000000000000000000000000000000000000000000000000 M
b1000111111111001 ,
b1000111111111001 8
b1000111111111001 ?
1-
#1415000
0-
#1420000
b1100101 H
b11111111111111111111111111110000000001111111111000000000000000000000000000000000000000000000000000000000000000000000000000000000000000000000000000000 K
b11111111111111111111111111110000000001111111111000000000000000000000000000000000000000000000000000000000000000000000000000000000000000000000000000000 M
b1000111111111010 ,
b1000111111111010 8
b1000111111111010 ?
1-
#1425000
0-
#1430000
b1100100 H
b11111111111111111111111111110000000001111111111100000000000000000000000000000000000000000000000000000000000000000000000000000000000000000000000000000 K
b11111111111111111111111111110000000001111111111100000000000000000000000000000000000000000000000000000000000000000000000000000000000000000000000000000 M
b1000111111111011 ,
b1000111111111011 8
b1000111111111011 ?
1-
#1435000
0-
#1440000
b1100011 H
b11111111111111111111111111110000000001111111111110000000000000000000000000000000000000000000000000000000000000000000000000000000000000000000000000000 K
b11111111111111111111111111110000000001111111111110000000000000000000000000000000000000000000000000000000000000000000000000000000000000000000000000000 M
b1000111111111100 ,
b1000111111111100 8
b1000111111111100 ?
1-
#1445000
0-
#1450000
b1100010 H
b11111111111111111111111111110000000001111111111111000000000000000000000000000000000000000000000000000000000000000000000000000000000000000000000000000 K
b11111111111111111111111111110000000001111111111111000000000000000000000000000000000000000000000000000000000000000000000000000000000000000000000000000 M
b1000111111111101 ,
b1000111111111101 8
b1000111111111101 ?
1-
#1455000
0-
#1460000
b1100001 H
b11111111111111111111111111110000000001111111111111100000000000000000000000000000000000000000000000000000000000000000000000000000000000000000000000000 K
b11111111111111111111111111110000000001111111111111100000000000000000000000000000000000000000000000000000000000000000000000000000000000000000000000000 M
b1000111111111110 ,
b1000111111111110 8
b1000111111111110 ?
1-
#1465000
0-
#1470000
b1100000 H
b11111111111111111111111111110000000001111111111111110000000000000000000000000000000000000000000000000000000000000000000000000000000000000000000000000 K
b11111111111111111111111111110000000001111111111111110000000000000000000000000000000000000000000000000000000000000000000000000000000000000000000000000 M
b1000111111111111 ,
b1000111111111111 8
b1000111111111111 ?
1-
#1475000
0-
