sim/testbench_3.vcd
$date
	Tue Nov 29 20:58:03 2022
$end
$version
	Icarus Verilog
$end
$timescale
	1ps
$end
$scope module testbench_3 $end
$var wire 9 ! top_edge [8:0] $end
$var wire 8 " right_edge [7:0] $end
$var wire 16 # pixel_data [15:0] $end
$var wire 8 $ left_edge [7:0] $end
$var wire 1 % data_valid_out $end
$var wire 9 & bot_edge [8:0] $end
$var wire 17 ' addr [16:0] $end
$var reg 1 ( clk $end
$var reg 1 ) find_corners_flag $end
$var reg 1 * rst $end
$scope module card_input $end
$var wire 1 ( clka $end
$var wire 16 + dina [15:0] $end
$var wire 1 , ena $end
$var wire 1 - regcea $end
$var wire 1 * rsta $end
$var wire 1 . wea $end
$var wire 16 / douta [15:0] $end
$var wire 17 0 addra [16:0] $end
$var reg 16 1 ram_data [15:0] $end
$scope function clogb2 $end
$var integer 32 2 depth [31:0] $end
$upscope $end
$scope begin no_output_register $end
$upscope $end
$scope begin use_init_file $end
$upscope $end
$upscope $end
$scope module corner_finder $end
$var wire 1 ( clk_in $end
$var wire 1 ) find_corners_flag $end
$var wire 16 3 pixel_data_in [15:0] $end
$var wire 1 * rst_in $end
$var wire 8 4 x_center [7:0] $end
$var wire 9 5 y_center [8:0] $end
$var wire 1 6 pixel_data_in_thresh $end
$var reg 17 7 addr_out [16:0] $end
$var reg 9 8 bot_edge [8:0] $end
$var reg 1 9 check_flag_bot $end
$var reg 1 : check_flag_left $end
$var reg 1 ; check_flag_right $end
$var reg 1 < check_flag_top $end
$var reg 1 % data_valid_out $end
$var reg 1 = delay_flag $end
$var reg 1 > end_flag $end
$var reg 1 ? find_corners_flag_old $end
$var reg 8 @ index_x [7:0] $end
$var reg 9 A index_y [8:0] $end
$var reg 8 B left_edge [7:0] $end
$var reg 240 C line_cache_rst_x [239:0] $end
$var reg 320 D line_cache_rst_y [319:0] $end
$var reg 240 E line_cache_x [239:0] $end
$var reg 320 F line_cache_y [319:0] $end
$var reg 8 G right_edge [7:0] $end
$var reg 9 H shift_reg_height [8:0] $end
$var reg 8 I shift_reg_width [7:0] $end
$var reg 1 J start_flag_x $end
$var reg 1 K start_flag_y $end
$var reg 9 L top_edge [8:0] $end
$upscope $end
$upscope $end
$enddefinitions $end
#0
$dumpvars
bx L
0K
0J
bx I
bx H
bx G
bx F
bx E
bx D
bx C
bx B
bx A
bx @
0?
0>
0=
0<
0;
0:
09
bx 8
bx 7
x6
b10011001 5
b1110010 4
bx 3
bx 2
bx 1
bx 0
bx /
0.
1-
1,
b0 +
0*
0)
1(
bx '
bx &
x%
bx $
bx #
bx "
bx !
$end
#5000
0(
#10000
b0 I
b0 H
b0 '
b0 0
b0 7
0%
b0 A
b0 @
b0 D
b0 F
b0 C
b0 E
b0 &
b0 8
b0 !
b0 L
b0 $
b0 B
b0 "
b0 G
1(
1*
#15000
0(
#20000
06
b0 #
b0 /
b0 1
b0 3
1(
0*
#25000
0(
#30000
b100111111 A
b11101111 @
b1000111101110000 '
b1000111101110000 0
b1000111101110000 7
1=
1?
1(
1)
#35000
0(
#40000
0=
1J
0?
1(
0)
#45000
0(
#50000
b11101110 @
b1000111101110001 '
b1000111101110001 0
b1000111101110001 7
1(
#55000
0(
#60000
b11101101 @
b1000111101110010 '
b1000111101110010 0
b1000111101110010 7
1(
#65000
0(
#70000
b11101100 @
b1000111101110011 '
b1000111101110011 0
b1000111101110011 7
1(
#75000
0(
#80000
b11101011 @
b1000111101110100 '
b1000111101110100 0
b1000111101110100 7
1(
#85000
0(
#90000
b11101010 @
b1000111101110101 '
b1000111101110101 0
b1000111101110101 7
1(
#95000
0(
#100000
b11101001 @
b1000111101110110 '
b1000111101110110 0
b1000111101110110 7
1(
#105000
0(
#110000
b11101000 @
b1000111101110111 '
b1000111101110111 0
b1000111101110111 7
1(
#115000
0(
#120000
b11100111 @
b1000111101111000 '
b1000111101111000 0
b1000111101111000 7
1(
#125000
0(
#130000
b11100110 @
b1000111101111001 '
b1000111101111001 0
b1000111101111001 7
1(
#135000
0(
#140000
b11100101 @
b1000111101111010 '
b1000111101111010 0
b1000111101111010 7
1(
#145000
0(
#150000
b11100100 @
b1000111101111011 '
b1000111101111011 0
b1000111101111011 7
1(
#155000
0(
#160000
b11100011 @
b1000111101111100 '
b1000111101111100 0
b1000111101111100 7
1(
#165000
0(
#170000
b11100010 @
b1000111101111101 '
b1000111101111101 0
b1000111101111101 7
1(
#175000
0(
#180000
b11100001 @
b1000111101111110 '
b1000111101111110 0
b1000111101111110 7
1(
#185000
0(
#190000
b11100000 @
b1000111101111111 '
b1000111101111111 0
b1000111101111111 7
1(
#195000
0(
#200000
b11011111 @
b1000111110000000 '
b1000111110000000 0
b1000111110000000 7
1(
#205000
0(
#210000
b11011110 @
b1000111110000001 '
b1000111110000001 0
b1000111110000001 7
1(
#215000
0(
#220000
b11011101 @
b1000111110000010 '
b1000111110000010 0
b1000111110000010 7
1(
#225000
0(
#230000
b11011100 @
b1000111110000011 '
b1000111110000011 0
b1000111110000011 7
1(
#235000
0(
#240000
b11011011 @
b1000111110000100 '
b1000111110000100 0
b1000111110000100 7
1(
#245000
0(
#250000
b11011010 @
b1000111110000101 '
b1000111110000101 0
b1000111110000101 7
1(
#255000
0(
#260000
b11011001 @
b1000111110000110 '
b1000111110000110 0
b1000111110000110 7
1(
#265000
0(
#270000
b11011000 @
b1000111110000111 '
b1000111110000111 0
b1000111110000111 7
1(
#275000
0(
#280000
b11010111 @
b1000111110001000 '
b1000111110001000 0
b1000111110001000 7
1(
#285000
0(
#290000
b11010110 @
b1000111110001001 '
b1000111110001001 0
b1000111110001001 7
1(
#295000
0(
#300000
b11010101 @
b1000111110001010 '
b1000111110001010 0
b1000111110001010 7
1(
#305000
0(
#310000
b11010100 @
b1000111110001011 '
b1000111110001011 0
b1000111110001011 7
1(
#315000
0(
#320000
b11010011 @
b1000111110001100 '
b1000111110001100 0
b1000111110001100 7
1(
#325000
0(
#330000
b11010010 @
b1000111110001101 '
b1000111110001101 0
b1000111110001101 7
1(
#335000
0(
#340000
b11010001 @
b1000111110001110 '
b1000111110001110 0
b1000111110001110 7
1(
#345000
0(
#350000
b11010000 @
b1000111110001111 '
b1000111110001111 0
b1000111110001111 7
1(
#355000
0(
#360000
b11001111 @
b1000111110010000 '
b1000111110010000 0
b1000111110010000 7
1(
#365000
0(
#370000
b11001110 @
b1000111110010001 '
b1000111110010001 0
b1000111110010001 7
1(
#375000
0(
#380000
b11001101 @
b1000111110010010 '
b1000111110010010 0
b1000111110010010 7
1(
#385000
0(
#390000
b11001100 @
b1000111110010011 '
b1000111110010011 0
b1000111110010011 7
1(
#395000
0(
#400000
b11001011 @
b1000111110010100 '
b1000111110010100 0
b1000111110010100 7
1(
#405000
0(
#410000
b11001010 @
b1000111110010101 '
b1000111110010101 0
b1000111110010101 7
1(
#415000
0(
#420000
b11001001 @
b1000111110010110 '
b1000111110010110 0
b1000111110010110 7
1(
#425000
0(
#430000
b11001000 @
b1000111110010111 '
b1000111110010111 0
b1000111110010111 7
1(
#435000
0(
#440000
b11000111 @
b1000111110011000 '
b1000111110011000 0
b1000111110011000 7
1(
#445000
0(
#450000
b11000110 @
b1000111110011001 '
b1000111110011001 0
b1000111110011001 7
1(
#455000
0(
#460000
b11000101 @
b1000111110011010 '
b1000111110011010 0
b1000111110011010 7
1(
#465000
0(
#470000
b11000100 @
b1000111110011011 '
b1000111110011011 0
b1000111110011011 7
1(
#475000
0(
#480000
b11000011 @
b1000111110011100 '
b1000111110011100 0
b1000111110011100 7
1(
#485000
0(
#490000
b11000010 @
b1000111110011101 '
b1000111110011101 0
b1000111110011101 7
1(
#495000
0(
#500000
b11000001 @
b1000111110011110 '
b1000111110011110 0
b1000111110011110 7
1(
#505000
0(
#510000
b11000000 @
b1000111110011111 '
b1000111110011111 0
b1000111110011111 7
1(
#515000
0(
#520000
b10111111 @
b1000111110100000 '
b1000111110100000 0
b1000111110100000 7
1(
#525000
0(
#530000
b10111110 @
b1000111110100001 '
b1000111110100001 0
b1000111110100001 7
1(
#535000
0(
#540000
b10111101 @
b1000111110100010 '
b1000111110100010 0
b1000111110100010 7
1(
#545000
0(
#550000
b10111100 @
b1000111110100011 '
b1000111110100011 0
b1000111110100011 7
1(
#555000
0(
#560000
b10111011 @
b1000111110100100 '
b1000111110100100 0
b1000111110100100 7
1(
#565000
0(
#570000
b10111010 @
b1000111110100101 '
b1000111110100101 0
b1000111110100101 7
1(
#575000
0(
#580000
b10111001 @
b1000111110100110 '
b1000111110100110 0
b1000111110100110 7
1(
#585000
0(
#590000
b10111000 @
b1000111110100111 '
b1000111110100111 0
b1000111110100111 7
1(
#595000
0(
#600000
b10110111 @
b1000111110101000 '
b1000111110101000 0
b1000111110101000 7
1(
#605000
0(
#610000
b10110110 @
b1000111110101001 '
b1000111110101001 0
b1000111110101001 7
1(
#615000
0(
#620000
b10110101 @
b1000111110101010 '
b1000111110101010 0
b1000111110101010 7
1(
#625000
0(
#630000
b10110100 @
b1000111110101011 '
b1000111110101011 0
b1000111110101011 7
1(
#635000
0(
#640000
b10110011 @
b1000111110101100 '
b1000111110101100 0
b1000111110101100 7
1(
#645000
0(
#650000
b10110010 @
b1000111110101101 '
b1000111110101101 0
b1000111110101101 7
1(
#655000
0(
#660000
b10110001 @
b1000111110101110 '
b1000111110101110 0
b1000111110101110 7
1(
#665000
0(
#670000
b10110000 @
b1000111110101111 '
b1000111110101111 0
b1000111110101111 7
1(
#675000
0(
#680000
b10101111 @
b1000111110110000 '
b1000111110110000 0
b1000111110110000 7
1(
#685000
0(
#690000
b10101110 @
b1000111110110001 '
b1000111110110001 0
b1000111110110001 7
1(
#695000
0(
#700000
b10101101 @
b1000111110110010 '
b1000111110110010 0
b1000111110110010 7
1(
#705000
0(
#710000
b10101100 @
b1000111110110011 '
b1000111110110011 0
b1000111110110011 7
1(
#715000
0(
#720000
b10101011 @
b1000111110110100 '
b1000111110110100 0
b1000111110110100 7
1(
#725000
0(
#730000
b10101010 @
b1000111110110101 '
b1000111110110101 0
b1000111110110101 7
1(
#735000
0(
#740000
b10101001 @
b1000111110110110 '
b1000111110110110 0
b1000111110110110 7
1(
#745000
0(
#750000
b10101000 @
b1000111110110111 '
b1000111110110111 0
b1000111110110111 7
1(
#755000
0(
#760000
b10100111 @
b1000111110111000 '
b1000111110111000 0
b1000111110111000 7
1(
#765000
0(
#770000
b10100110 @
b1000111110111001 '
b1000111110111001 0
b1000111110111001 7
1(
#775000
0(
#780000
b10100101 @
b1000111110111010 '
b1000111110111010 0
b1000111110111010 7
1(
#785000
0(
#790000
b10100100 @
b1000111110111011 '
b1000111110111011 0
b1000111110111011 7
16
b11111111 #
b11111111 /
b11111111 1
b11111111 3
1(
#795000
0(
#800000
b10100011 @
b100000000000000000000000000000000000000000000000000000000000000000000000000000000000000000000000000000000000000000000000000000000000000000000000000000000000000000000 C
b100000000000000000000000000000000000000000000000000000000000000000000000000000000000000000000000000000000000000000000000000000000000000000000000000000000000000000000 E
b1000111110111100 '
b1000111110111100 0
b1000111110111100 7
1(
#805000
0(
#810000
b10100010 @
b110000000000000000000000000000000000000000000000000000000000000000000000000000000000000000000000000000000000000000000000000000000000000000000000000000000000000000000 C
b110000000000000000000000000000000000000000000000000000000000000000000000000000000000000000000000000000000000000000000000000000000000000000000000000000000000000000000 E
b1000111110111101 '
b1000111110111101 0
b1000111110111101 7
1(
#815000
0(
#820000
b10100001 @
b111000000000000000000000000000000000000000000000000000000000000000000000000000000000000000000000000000000000000000000000000000000000000000000000000000000000000000000 C
b111000000000000000000000000000000000000000000000000000000000000000000000000000000000000000000000000000000000000000000000000000000000000000000000000000000000000000000 E
b1000111110111110 '
b1000111110111110 0
b1000111110111110 7
1(
#825000
0(
#830000
b10100000 @
b111100000000000000000000000000000000000000000000000000000000000000000000000000000000000000000000000000000000000000000000000000000000000000000000000000000000000000000 C
b111100000000000000000000000000000000000000000000000000000000000000000000000000000000000000000000000000000000000000000000000000000000000000000000000000000000000000000 E
b1000111110111111 '
b1000111110111111 0
b1000111110111111 7
1(
#835000
0(
#840000
b10011111 @
b111110000000000000000000000000000000000000000000000000000000000000000000000000000000000000000000000000000000000000000000000000000000000000000000000000000000000000000 C
b111110000000000000000000000000000000000000000000000000000000000000000000000000000000000000000000000000000000000000000000000000000000000000000000000000000000000000000 E
b1000111111000000 '
b1000111111000000 0
b1000111111000000 7
1(
#845000
0(
#850000
b10011110 @
b111111000000000000000000000000000000000000000000000000000000000000000000000000000000000000000000000000000000000000000000000000000000000000000000000000000000000000000 C
b111111000000000000000000000000000000000000000000000000000000000000000000000000000000000000000000000000000000000000000000000000000000000000000000000000000000000000000 E
b1000111111000001 '
b1000111111000001 0
b1000111111000001 7
1(
#855000
0(
#860000
b10011101 @
b111111100000000000000000000000000000000000000000000000000000000000000000000000000000000000000000000000000000000000000000000000000000000000000000000000000000000000000 C
b111111100000000000000000000000000000000000000000000000000000000000000000000000000000000000000000000000000000000000000000000000000000000000000000000000000000000000000 E
b1000111111000010 '
b1000111111000010 0
b1000111111000010 7
1(
#865000
0(
#870000
b10011100 @
b111111110000000000000000000000000000000000000000000000000000000000000000000000000000000000000000000000000000000000000000000000000000000000000000000000000000000000000 C
b111111110000000000000000000000000000000000000000000000000000000000000000000000000000000000000000000000000000000000000000000000000000000000000000000000000000000000000 E
b1000111111000011 '
b1000111111000011 0
b1000111111000011 7
1(
#875000
0(
#880000
b10011011 @
b111111111000000000000000000000000000000000000000000000000000000000000000000000000000000000000000000000000000000000000000000000000000000000000000000000000000000000000 C
b111111111000000000000000000000000000000000000000000000000000000000000000000000000000000000000000000000000000000000000000000000000000000000000000000000000000000000000 E
b1000111111000100 '
b1000111111000100 0
b1000111111000100 7
1(
#885000
0(
#890000
b10011010 @
b111111111100000000000000000000000000000000000000000000000000000000000000000000000000000000000000000000000000000000000000000000000000000000000000000000000000000000000 C
b111111111100000000000000000000000000000000000000000000000000000000000000000000000000000000000000000000000000000000000000000000000000000000000000000000000000000000000 E
b1000111111000101 '
b1000111111000101 0
b1000111111000101 7
1(
#895000
0(
#900000
06
b0 #
b0 /
b0 1
b0 3
b10011001 @
b111111111110000000000000000000000000000000000000000000000000000000000000000000000000000000000000000000000000000000000000000000000000000000000000000000000000000000000 C
b111111111110000000000000000000000000000000000000000000000000000000000000000000000000000000000000000000000000000000000000000000000000000000000000000000000000000000000 E
b1000111111000110 '
b1000111111000110 0
b1000111111000110 7
1(
#905000
0(
#910000
b10011000 @
b1000111111000111 '
b1000111111000111 0
b1000111111000111 7
1(
#915000
0(
#920000
b10010111 @
b1000111111001000 '
b1000111111001000 0
b1000111111001000 7
1(
#925000
0(
#930000
b10010110 @
b1000111111001001 '
b1000111111001001 0
b1000111111001001 7
1(
#935000
0(
#940000
b10010101 @
b1000111111001010 '
b1000111111001010 0
b1000111111001010 7
1(
#945000
0(
#950000
b10010100 @
b1000111111001011 '
b1000111111001011 0
b1000111111001011 7
1(
#955000
0(
#960000
b10010011 @
b1000111111001100 '
b1000111111001100 0
b1000111111001100 7
1(
#965000
0(
#970000
b10010010 @
b1000111111001101 '
b1000111111001101 0
b1000111111001101 7
16
b11111111 #
b11111111 /
b11111111 1
b11111111 3
1(
#975000
0(
#980000
06
b0 #
b0 /
b0 1
b0 3
b10010001 @
b111111111110000000100000000000000000000000000000000000000000000000000000000000000000000000000000000000000000000000000000000000000000000000000000000000000000000000000 C
b111111111110000000100000000000000000000000000000000000000000000000000000000000000000000000000000000000000000000000000000000000000000000000000000000000000000000000000 E
b1000111111001110 '
b1000111111001110 0
b1000111111001110 7
1(
#985000
0(
#990000
b10010000 @
b1000111111001111 '
b1000111111001111 0
b1000111111001111 7
1(
#995000
0(
#1000000
b10001111 @
b1000111111010000 '
b1000111111010000 0
b1000111111010000 7
1(
#1005000
0(
#1010000
b10001110 @
b1000111111010001 '
b1000111111010001 0
b1000111111010001 7
1(
#1015000
0(
#1020000
b10001101 @
b1000111111010010 '
b1000111111010010 0
b1000111111010010 7
1(
#1025000
0(
#1030000
b10001100 @
b1000111111010011 '
b1000111111010011 0
b1000111111010011 7
1(
#1035000
0(
#1040000
b10001011 @
b1000111111010100 '
b1000111111010100 0
b1000111111010100 7
1(
#1045000
0(
#1050000
b10001010 @
b1000111111010101 '
b1000111111010101 0
b1000111111010101 7
1(
#1055000
0(
#1060000
b10001001 @
b1000111111010110 '
b1000111111010110 0
b1000111111010110 7
1(
#1065000
0(
#1070000
b10001000 @
b1000111111010111 '
b1000111111010111 0
b1000111111010111 7
1(
#1075000
0(
#1080000
b10000111 @
b1000111111011000 '
b1000111111011000 0
b1000111111011000 7
1(
#1085000
0(
#1090000
b10000110 @
b1000111111011001 '
b1000111111011001 0
b1000111111011001 7
1(
#1095000
0(
#1100000
b10000101 @
b1000111111011010 '
b1000111111011010 0
b1000111111011010 7
1(
#1105000
0(
#1110000
b10000100 @
b1000111111011011 '
b1000111111011011 0
b1000111111011011 7
1(
#1115000
0(
#1120000
b10000011 @
b1000111111011100 '
b1000111111011100 0
b1000111111011100 7
1(
#1125000
0(
#1130000
b10000010 @
b1000111111011101 '
b1000111111011101 0
b1000111111011101 7
1(
#1135000
0(
#1140000
16
b11111111 #
b11111111 /
b11111111 1
b11111111 3
b10000001 @
b1000111111011110 '
b1000111111011110 0
b1000111111011110 7
1(
#1145000
0(
#1150000
b10000000 @
b111111111110000000100000000000000001000000000000000000000000000000000000000000000000000000000000000000000000000000000000000000000000000000000000000000000000000000000 C
b111111111110000000100000000000000001000000000000000000000000000000000000000000000000000000000000000000000000000000000000000000000000000000000000000000000000000000000 E
b1000111111011111 '
b1000111111011111 0
b1000111111011111 7
06
b0 #
b0 /
b0 1
b0 3
1(
#1155000
0(
#1160000
b1111111 @
b1000111111100000 '
b1000111111100000 0
b1000111111100000 7
1(
#1165000
0(
#1170000
b1111110 @
b1000111111100001 '
b1000111111100001 0
b1000111111100001 7
1(
#1175000
0(
#1180000
b1111101 @
b1000111111100010 '
b1000111111100010 0
b1000111111100010 7
1(
#1185000
0(
#1190000
b1111100 @
b1000111111100011 '
b1000111111100011 0
b1000111111100011 7
1(
#1195000
0(
#1200000
b1111011 @
b1000111111100100 '
b1000111111100100 0
b1000111111100100 7
1(
#1205000
0(
#1210000
b1111010 @
b1000111111100101 '
b1000111111100101 0
b1000111111100101 7
1(
#1215000
0(
#1220000
b1111001 @
b1000111111100110 '
b1000111111100110 0
b1000111111100110 7
1(
#1225000
0(
#1230000
b1111000 @
b1000111111100111 '
b1000111111100111 0
b1000111111100111 7
1(
#1235000
0(
#1240000
b1110111 @
b1000111111101000 '
b1000111111101000 0
b1000111111101000 7
1(
#1245000
0(
#1250000
b1110110 @
b1000111111101001 '
b1000111111101001 0
b1000111111101001 7
1(
#1255000
0(
#1260000
b1110101 @
b1000111111101010 '
b1000111111101010 0
b1000111111101010 7
1(
#1265000
0(
#1270000
b1110100 @
b1000111111101011 '
b1000111111101011 0
b1000111111101011 7
1(
#1275000
0(
#1280000
b1110011 @
b1000111111101100 '
b1000111111101100 0
b1000111111101100 7
1(
#1285000
0(
#1290000
b1110010 @
b1000111111101101 '
b1000111111101101 0
b1000111111101101 7
1(
#1295000
0(
#1300000
b1110001 @
b1000111111101110 '
b1000111111101110 0
b1000111111101110 7
1(
#1305000
0(
#1310000
b1110000 @
b1000111111101111 '
b1000111111101111 0
b1000111111101111 7
1(
#1315000
0(
#1320000
b1101111 @
b1000111111110000 '
b1000111111110000 0
b1000111111110000 7
1(
#1325000
0(
#1330000
b1101110 @
b1000111111110001 '
b1000111111110001 0
b1000111111110001 7
1(
#1335000
0(
#1340000
b1101101 @
b1000111111110010 '
b1000111111110010 0
b1000111111110010 7
1(
#1345000
0(
#1350000
b1101100 @
b1000111111110011 '
b1000111111110011 0
b1000111111110011 7
1(
#1355000
0(
#1360000
b1101011 @
b1000111111110100 '
b1000111111110100 0
b1000111111110100 7
1(
#1365000
0(
#1370000
b1101010 @
b1000111111110101 '
b1000111111110101 0
b1000111111110101 7
1(
#1375000
0(
#1380000
b1101001 @
b1000111111110110 '
b1000111111110110 0
b1000111111110110 7
1(
#1385000
0(
#1390000
b1101000 @
b1000111111110111 '
b1000111111110111 0
b1000111111110111 7
16
b11111111 #
b11111111 /
b11111111 1
b11111111 3
1(
#1395000
0(
#1400000
b1100111 @
b111111111110000000100000000000000001000000000000000000000000100000000000000000000000000000000000000000000000000000000000000000000000000000000000000000000000000000000 C
b111111111110000000100000000000000001000000000000000000000000100000000000000000000000000000000000000000000000000000000000000000000000000000000000000000000000000000000 E
b1000111111111000 '
b1000111111111000 0
b1000111111111000 7
1(
#1405000
0(
#1410000
b1100110 @
b111111111110000000100000000000000001000000000000000000000000110000000000000000000000000000000000000000000000000000000000000000000000000000000000000000000000000000000 C
b111111111110000000100000000000000001000000000000000000000000110000000000000000000000000000000000000000000000000000000000000000000000000000000000000000000000000000000 E
b1000111111111001 '
b1000111111111001 0
b1000111111111001 7
06
b0 #
b0 /
b0 1
b0 3
1(
#1415000
0(
#1420000
b1100101 @
b1000111111111010 '
b1000111111111010 0
b1000111111111010 7
1(
#1425000
0(
#1430000
b1100100 @
b1000111111111011 '
b1000111111111011 0
b1000111111111011 7
1(
#1435000
0(
#1440000
b1100011 @
b1000111111111100 '
b1000111111111100 0
b1000111111111100 7
1(
#1445000
0(
#1450000
b1100010 @
b1000111111111101 '
b1000111111111101 0
b1000111111111101 7
1(
#1455000
0(
#1460000
b1100001 @
b1000111111111110 '
b1000111111111110 0
b1000111111111110 7
1(
#1465000
0(
#1470000
b1100000 @
b1000111111111111 '
b1000111111111111 0
b1000111111111111 7
1(
#1475000
0(
#1480000
b1011111 @
b1001000000000000 '
b1001000000000000 0
b1001000000000000 7
1(
#1485000
0(
#1490000
b1011110 @
b1001000000000001 '
b1001000000000001 0
b1001000000000001 7
1(
#1495000
0(
#1500000
16
b11111111 #
b11111111 /
b11111111 1
b11111111 3
b1011101 @
b1001000000000010 '
b1001000000000010 0
b1001000000000010 7
1(
#1505000
0(
#1510000
b1011100 @
b111111111110000000100000000000000001000000000000000000000000110000000001000000000000000000000000000000000000000000000000000000000000000000000000000000000000000000000 C
b111111111110000000100000000000000001000000000000000000000000110000000001000000000000000000000000000000000000000000000000000000000000000000000000000000000000000000000 E
b1001000000000011 '
b1001000000000011 0
b1001000000000011 7
1(
#1515000
0(
#1520000
b1011011 @
b111111111110000000100000000000000001000000000000000000000000110000000001100000000000000000000000000000000000000000000000000000000000000000000000000000000000000000000 C
b111111111110000000100000000000000001000000000000000000000000110000000001100000000000000000000000000000000000000000000000000000000000000000000000000000000000000000000 E
b1001000000000100 '
b1001000000000100 0
b1001000000000100 7
1(
#1525000
0(
#1530000
b1011010 @
b111111111110000000100000000000000001000000000000000000000000110000000001110000000000000000000000000000000000000000000000000000000000000000000000000000000000000000000 C
b111111111110000000100000000000000001000000000000000000000000110000000001110000000000000000000000000000000000000000000000000000000000000000000000000000000000000000000 E
b1001000000000101 '
b1001000000000101 0
b1001000000000101 7
1(
#1535000
0(
#1540000
b1011001 @
b111111111110000000100000000000000001000000000000000000000000110000000001111000000000000000000000000000000000000000000000000000000000000000000000000000000000000000000 C
b111111111110000000100000000000000001000000000000000000000000110000000001111000000000000000000000000000000000000000000000000000000000000000000000000000000000000000000 E
b1001000000000110 '
b1001000000000110 0
b1001000000000110 7
1(
#1545000
0(
#1550000
b1011000 @
b111111111110000000100000000000000001000000000000000000000000110000000001111100000000000000000000000000000000000000000000000000000000000000000000000000000000000000000 C
b111111111110000000100000000000000001000000000000000000000000110000000001111100000000000000000000000000000000000000000000000000000000000000000000000000000000000000000 E
b1001000000000111 '
b1001000000000111 0
b1001000000000111 7
1(
#1555000
0(
#1560000
b1010111 @
b111111111110000000100000000000000001000000000000000000000000110000000001111110000000000000000000000000000000000000000000000000000000000000000000000000000000000000000 C
b111111111110000000100000000000000001000000000000000000000000110000000001111110000000000000000000000000000000000000000000000000000000000000000000000000000000000000000 E
b1001000000001000 '
b1001000000001000 0
b1001000000001000 7
1(
#1565000
0(
#1570000
b1010110 @
b111111111110000000100000000000000001000000000000000000000000110000000001111111000000000000000000000000000000000000000000000000000000000000000000000000000000000000000 C
b111111111110000000100000000000000001000000000000000000000000110000000001111111000000000000000000000000000000000000000000000000000000000000000000000000000000000000000 E
b1001000000001001 '
b1001000000001001 0
b1001000000001001 7
1(
#1575000
0(
#1580000
b1010101 @
b111111111110000000100000000000000001000000000000000000000000110000000001111111100000000000000000000000000000000000000000000000000000000000000000000000000000000000000 C
b111111111110000000100000000000000001000000000000000000000000110000000001111111100000000000000000000000000000000000000000000000000000000000000000000000000000000000000 E
b1001000000001010 '
b1001000000001010 0
b1001000000001010 7
1(
#1585000
0(
#1590000
b1010100 @
b111111111110000000100000000000000001000000000000000000000000110000000001111111110000000000000000000000000000000000000000000000000000000000000000000000000000000000000 C
b111111111110000000100000000000000001000000000000000000000000110000000001111111110000000000000000000000000000000000000000000000000000000000000000000000000000000000000 E
b1001000000001011 '
b1001000000001011 0
b1001000000001011 7
1(
#1595000
0(
#1600000
b1010011 @
b111111111110000000100000000000000001000000000000000000000000110000000001111111111000000000000000000000000000000000000000000000000000000000000000000000000000000000000 C
b111111111110000000100000000000000001000000000000000000000000110000000001111111111000000000000000000000000000000000000000000000000000000000000000000000000000000000000 E
b1001000000001100 '
b1001000000001100 0
b1001000000001100 7
1(
#1605000
0(
#1610000
b1010010 @
b111111111110000000100000000000000001000000000000000000000000110000000001111111111100000000000000000000000000000000000000000000000000000000000000000000000000000000000 C
b111111111110000000100000000000000001000000000000000000000000110000000001111111111100000000000000000000000000000000000000000000000000000000000000000000000000000000000 E
b1001000000001101 '
b1001000000001101 0
b1001000000001101 7
06
b0 #
b0 /
b0 1
b0 3
1(
#1615000
0(
#1620000
b1010001 @
b1001000000001110 '
b1001000000001110 0
b1001000000001110 7
1(
#1625000
0(
#1630000
b1010000 @
b1001000000001111 '
b1001000000001111 0
b1001000000001111 7
1(
#1635000
0(
#1640000
b1001111 @
b1001000000010000 '
b1001000000010000 0
b1001000000010000 7
1(
#1645000
0(
#1650000
b1001110 @
b1001000000010001 '
b1001000000010001 0
b1001000000010001 7
1(
#1655000
0(
#1660000
b1001101 @
b1001000000010010 '
b1001000000010010 0
b1001000000010010 7
1(
#1665000
0(
#1670000
b1001100 @
b1001000000010011 '
b1001000000010011 0
b1001000000010011 7
1(
#1675000
0(
#1680000
b1001011 @
b1001000000010100 '
b1001000000010100 0
b1001000000010100 7
1(
#1685000
0(
#1690000
b1001010 @
b1001000000010101 '
b1001000000010101 0
b1001000000010101 7
1(
#1695000
0(
#1700000
b1001001 @
b1001000000010110 '
b1001000000010110 0
b1001000000010110 7
1(
#1705000
0(
#1710000
b1001000 @
b1001000000010111 '
b1001000000010111 0
b1001000000010111 7
1(
#1715000
0(
#1720000
b1000111 @
b1001000000011000 '
b1001000000011000 0
b1001000000011000 7
1(
#1725000
0(
#1730000
b1000110 @
b1001000000011001 '
b1001000000011001 0
b1001000000011001 7
1(
#1735000
0(
#1740000
b1000101 @
b1001000000011010 '
b1001000000011010 0
b1001000000011010 7
1(
#1745000
0(
#1750000
b1000100 @
b1001000000011011 '
b1001000000011011 0
b1001000000011011 7
1(
#1755000
0(
#1760000
b1000011 @
b1001000000011100 '
b1001000000011100 0
b1001000000011100 7
1(
#1765000
0(
#1770000
b1000010 @
b1001000000011101 '
b1001000000011101 0
b1001000000011101 7
1(
#1775000
0(
#1780000
b1000001 @
b1001000000011110 '
b1001000000011110 0
b1001000000011110 7
1(
#1785000
0(
#1790000
b1000000 @
b1001000000011111 '
b1001000000011111 0
b1001000000011111 7
1(
#1795000
0(
#1800000
b111111 @
b1001000000100000 '
b1001000000100000 0
b1001000000100000 7
1(
#1805000
0(
#1810000
b111110 @
b1001000000100001 '
b1001000000100001 0
b1001000000100001 7
1(
#1815000
0(
#1820000
b111101 @
b1001000000100010 '
b1001000000100010 0
b1001000000100010 7
1(
#1825000
0(
#1830000
b111100 @
b1001000000100011 '
b1001000000100011 0
b1001000000100011 7
1(
#1835000
0(
#1840000
b111011 @
b1001000000100100 '
b1001000000100100 0
b1001000000100100 7
1(
#1845000
0(
#1850000
b111010 @
b1001000000100101 '
b1001000000100101 0
b1001000000100101 7
1(
#1855000
0(
#1860000
b111001 @
b1001000000100110 '
b1001000000100110 0
b1001000000100110 7
1(
#1865000
0(
#1870000
b111000 @
b1001000000100111 '
b1001000000100111 0
b1001000000100111 7
1(
#1875000
0(
#1880000
b110111 @
b1001000000101000 '
b1001000000101000 0
b1001000000101000 7
1(
#1885000
0(
#1890000
b110110 @
b1001000000101001 '
b1001000000101001 0
b1001000000101001 7
1(
#1895000
0(
#1900000
b110101 @
b1001000000101010 '
b1001000000101010 0
b1001000000101010 7
1(
#1905000
0(
#1910000
b110100 @
b1001000000101011 '
b1001000000101011 0
b1001000000101011 7
1(
#1915000
0(
#1920000
b110011 @
b1001000000101100 '
b1001000000101100 0
b1001000000101100 7
1(
#1925000
0(
#1930000
b110010 @
b1001000000101101 '
b1001000000101101 0
b1001000000101101 7
1(
#1935000
0(
#1940000
b110001 @
b1001000000101110 '
b1001000000101110 0
b1001000000101110 7
1(
#1945000
0(
#1950000
b110000 @
b1001000000101111 '
b1001000000101111 0
b1001000000101111 7
1(
#1955000
0(
#1960000
b101111 @
b1001000000110000 '
b1001000000110000 0
b1001000000110000 7
1(
#1965000
0(
#1970000
b101110 @
b1001000000110001 '
b1001000000110001 0
b1001000000110001 7
1(
#1975000
0(
#1980000
b101101 @
b1001000000110010 '
b1001000000110010 0
b1001000000110010 7
1(
#1985000
0(
