sim/testbench_3.vcd
$date
	Tue Dec  6 21:36:43 2022
$end
$version
	Icarus Verilog
$end
$timescale
	1ps
$end
$scope module testbench_3 $end
$var wire 9 ! top_edge [8:0] $end
$var wire 8 " right_edge [7:0] $end
$var wire 1 # pixel_data_one_bit $end
$var wire 16 $ pixel_data_king [15:0] $end
$var wire 16 % pixel_data_ace [15:0] $end
$var wire 16 & pixel_data [15:0] $end
$var wire 8 ' left_edge [7:0] $end
$var wire 1 ( data_valid_out $end
$var wire 9 ) bot_edge [8:0] $end
$var wire 17 * addr [16:0] $end
$var reg 1 + ace_flag $end
$var reg 1 , clk $end
$var reg 1 - data_valid_out_suit_rank $end
$var reg 1 . find_corners_flag $end
$var reg 9 / index [8:0] $end
$var reg 9 0 index_pipe [8:0] $end
$var reg 16 1 pixel_data_corner [15:0] $end
$var reg 16 2 pixel_data_pipe_corner [15:0] $end
$var reg 1 3 rst $end
$scope module card_input_ace $end
$var wire 17 4 addra [16:0] $end
$var wire 1 5 clka $end
$var wire 1 , clkb $end
$var wire 16 6 dina [15:0] $end
$var wire 16 7 dinb [15:0] $end
$var wire 1 8 ena $end
$var wire 1 9 enb $end
$var wire 1 : regcea $end
$var wire 1 ; regceb $end
$var wire 1 < rsta $end
$var wire 1 3 rstb $end
$var wire 1 = wea $end
$var wire 1 > web $end
$var wire 16 ? doutb [15:0] $end
$var wire 16 @ douta [15:0] $end
$var wire 17 A addrb [16:0] $end
$var reg 16 B ram_data_a [15:0] $end
$var reg 16 C ram_data_b [15:0] $end
$scope function clogb2 $end
$var integer 32 D depth [31:0] $end
$upscope $end
$scope begin output_register $end
$var reg 16 E douta_reg [15:0] $end
$var reg 16 F doutb_reg [15:0] $end
$upscope $end
$scope begin use_init_file $end
$upscope $end
$upscope $end
$scope module card_input_king $end
$var wire 17 G addra [16:0] $end
$var wire 1 H clka $end
$var wire 1 , clkb $end
$var wire 16 I dina [15:0] $end
$var wire 16 J dinb [15:0] $end
$var wire 1 K ena $end
$var wire 1 L enb $end
$var wire 1 M regcea $end
$var wire 1 N regceb $end
$var wire 1 O rsta $end
$var wire 1 3 rstb $end
$var wire 1 P wea $end
$var wire 1 Q web $end
$var wire 16 R doutb [15:0] $end
$var wire 16 S douta [15:0] $end
$var wire 17 T addrb [16:0] $end
$var reg 16 U ram_data_a [15:0] $end
$var reg 16 V ram_data_b [15:0] $end
$scope function clogb2 $end
$var integer 32 W depth [31:0] $end
$upscope $end
$scope begin output_register $end
$var reg 16 X douta_reg [15:0] $end
$var reg 16 Y doutb_reg [15:0] $end
$upscope $end
$scope begin use_init_file $end
$upscope $end
$upscope $end
$scope module corner_finder $end
$var wire 1 , clk_in $end
$var wire 1 . find_corners_flag $end
$var wire 1 # pixel_data_in $end
$var wire 1 Z pixel_data_in_thresh $end
$var wire 1 3 rst_in $end
$var wire 8 [ x_center [7:0] $end
$var wire 9 \ y_center [8:0] $end
$var reg 17 ] addr_out [16:0] $end
$var reg 9 ^ bot_edge [8:0] $end
$var reg 1 _ busy $end
$var reg 1 ` check_flag_bot $end
$var reg 1 a check_flag_left $end
$var reg 1 b check_flag_right $end
$var reg 1 c check_flag_top $end
$var reg 1 ( data_valid_out $end
$var reg 1 d delay_flag $end
$var reg 1 e end_flag $end
$var reg 1 f find_corners_flag_old $end
$var reg 8 g index_x [7:0] $end
$var reg 9 h index_y [8:0] $end
$var reg 8 i left_edge [7:0] $end
$var reg 240 j line_cache_rst_x [239:0] $end
$var reg 320 k line_cache_rst_y [319:0] $end
$var reg 240 l line_cache_x [239:0] $end
$var reg 320 m line_cache_y [319:0] $end
$var reg 8 n right_edge [7:0] $end
$var reg 9 o shift_reg_height [8:0] $end
$var reg 8 p shift_reg_width [7:0] $end
$var reg 1 q start_flag_x $end
$var reg 1 r start_flag_y $end
$var reg 9 s top_edge [8:0] $end
$var reg 8 t x_center_cache [7:0] $end
$var reg 9 u y_center_cache [8:0] $end
$upscope $end
$scope begin blockName $end
$upscope $end
$upscope $end
$enddefinitions $end
#0
$dumpvars
bx u
bx t
bx s
0r
0q
bx p
bx o
bx n
bx m
bx l
bx k
bx j
bx i
bx h
bx g
0f
0e
0d
0c
0b
0a
0`
0_
bx ^
bx ]
b10011001 \
b1110010 [
0Z
b0 Y
b0 X
bx W
bx V
b0 U
bx T
b0 S
b0 R
0Q
zP
zO
1N
0M
1L
0K
b0 J
bz I
zH
bz G
b0 F
b0 E
bx D
bx C
b0 B
bx A
b0 @
b0 ?
0>
z=
z<
1;
0:
19
08
b0 7
bz 6
z5
bz 4
03
bx 2
bx 1
b0 0
b0 /
0.
x-
1,
0+
bx *
bx )
x(
bx '
b0 &
b0 %
b0 $
0#
bx "
bx !
$end
#5000
0,
#10000
b0 p
b0 o
b0 *
b0 A
b0 T
b0 ]
0(
b0 h
b0 g
b0 k
b0 m
b0 j
b0 l
b0 )
b0 ^
b0 !
b0 s
b0 '
b0 i
b0 "
b0 n
1,
13
#15000
0,
#20000
xZ
x#
bx &
bx %
bx ?
bx F
b0 C
bx $
bx R
bx Y
b0 V
1,
03
#25000
0,
#30000
0Z
0#
b0 &
b10011001 u
b1110010 t
1_
b100111111 h
b11101111 g
1d
1f
b0 $
b0 R
b0 Y
b0 %
b0 ?
b0 F
1,
1+
1.
#35000
0,
#40000
b1000111101110000 *
b1000111101110000 A
b1000111101110000 T
b1000111101110000 ]
0d
1q
0f
1,
0.
#45000
0,
#50000
b11101110 g
b1000111101110001 *
b1000111101110001 A
b1000111101110001 T
b1000111101110001 ]
1,
#55000
0,
#60000
b11101101 g
b1000111101110010 *
b1000111101110010 A
b1000111101110010 T
b1000111101110010 ]
1,
#65000
0,
#70000
b11101100 g
b1000111101110011 *
b1000111101110011 A
b1000111101110011 T
b1000111101110011 ]
1,
#75000
0,
#80000
b11101011 g
b1000111101110100 *
b1000111101110100 A
b1000111101110100 T
b1000111101110100 ]
1,
#85000
0,
#90000
b11101010 g
b1000111101110101 *
b1000111101110101 A
b1000111101110101 T
b1000111101110101 ]
1,
#95000
0,
#100000
b11101001 g
b1000111101110110 *
b1000111101110110 A
b1000111101110110 T
b1000111101110110 ]
1,
#105000
0,
#110000
b11101000 g
b1000111101110111 *
b1000111101110111 A
b1000111101110111 T
b1000111101110111 ]
1,
#115000
0,
#120000
b11100111 g
b1000111101111000 *
b1000111101111000 A
b1000111101111000 T
b1000111101111000 ]
1,
#125000
0,
#130000
b11100110 g
b1000111101111001 *
b1000111101111001 A
b1000111101111001 T
b1000111101111001 ]
1,
#135000
0,
#140000
b11100101 g
b1000111101111010 *
b1000111101111010 A
b1000111101111010 T
b1000111101111010 ]
1,
#145000
0,
#150000
b11100100 g
b1000111101111011 *
b1000111101111011 A
b1000111101111011 T
b1000111101111011 ]
1,
#155000
0,
#160000
b11100011 g
b1000111101111100 *
b1000111101111100 A
b1000111101111100 T
b1000111101111100 ]
1,
#165000
0,
#170000
b11100010 g
b1000111101111101 *
b1000111101111101 A
b1000111101111101 T
b1000111101111101 ]
1,
#175000
0,
#180000
b11100001 g
b1000111101111110 *
b1000111101111110 A
b1000111101111110 T
b1000111101111110 ]
1,
#185000
0,
#190000
b11100000 g
b1000111101111111 *
b1000111101111111 A
b1000111101111111 T
b1000111101111111 ]
1,
#195000
0,
#200000
b11011111 g
b1000111110000000 *
b1000111110000000 A
b1000111110000000 T
b1000111110000000 ]
1,
#205000
0,
#210000
b11011110 g
b1000111110000001 *
b1000111110000001 A
b1000111110000001 T
b1000111110000001 ]
1,
#215000
0,
#220000
b11011101 g
b1000111110000010 *
b1000111110000010 A
b1000111110000010 T
b1000111110000010 ]
1,
#225000
0,
#230000
b11011100 g
b1000111110000011 *
b1000111110000011 A
b1000111110000011 T
b1000111110000011 ]
1,
#235000
0,
#240000
b11011011 g
b1000111110000100 *
b1000111110000100 A
b1000111110000100 T
b1000111110000100 ]
1,
#245000
0,
#250000
b11011010 g
b1000111110000101 *
b1000111110000101 A
b1000111110000101 T
b1000111110000101 ]
1,
#255000
0,
#260000
b11011001 g
b1000111110000110 *
b1000111110000110 A
b1000111110000110 T
b1000111110000110 ]
1,
#265000
0,
#270000
b11011000 g
b1000111110000111 *
b1000111110000111 A
b1000111110000111 T
b1000111110000111 ]
1,
#275000
0,
#280000
b11010111 g
b1000111110001000 *
b1000111110001000 A
b1000111110001000 T
b1000111110001000 ]
1,
#285000
0,
#290000
b11010110 g
b1000111110001001 *
b1000111110001001 A
b1000111110001001 T
b1000111110001001 ]
1,
#295000
0,
#300000
b11010101 g
b1000111110001010 *
b1000111110001010 A
b1000111110001010 T
b1000111110001010 ]
1,
#305000
0,
#310000
b11010100 g
b1000111110001011 *
b1000111110001011 A
b1000111110001011 T
b1000111110001011 ]
1,
#315000
0,
#320000
b11010011 g
b1000111110001100 *
b1000111110001100 A
b1000111110001100 T
b1000111110001100 ]
1,
#325000
0,
#330000
b11010010 g
b1000111110001101 *
b1000111110001101 A
b1000111110001101 T
b1000111110001101 ]
1,
#335000
0,
#340000
b11010001 g
b1000111110001110 *
b1000111110001110 A
b1000111110001110 T
b1000111110001110 ]
1,
#345000
0,
#350000
b11010000 g
b1000111110001111 *
b1000111110001111 A
b1000111110001111 T
b1000111110001111 ]
1,
#355000
0,
#360000
b11001111 g
b1000111110010000 *
b1000111110010000 A
b1000111110010000 T
b1000111110010000 ]
1,
#365000
0,
#370000
b11001110 g
b1000111110010001 *
b1000111110010001 A
b1000111110010001 T
b1000111110010001 ]
1,
#375000
0,
#380000
b11001101 g
b1000111110010010 *
b1000111110010010 A
b1000111110010010 T
b1000111110010010 ]
1,
#385000
0,
#390000
b11001100 g
b1000111110010011 *
b1000111110010011 A
b1000111110010011 T
b1000111110010011 ]
1,
#395000
0,
#400000
b11001011 g
b1000111110010100 *
b1000111110010100 A
b1000111110010100 T
b1000111110010100 ]
1,
#405000
0,
#410000
b11001010 g
b1000111110010101 *
b1000111110010101 A
b1000111110010101 T
b1000111110010101 ]
1,
#415000
0,
#420000
b11001001 g
b1000111110010110 *
b1000111110010110 A
b1000111110010110 T
b1000111110010110 ]
1,
#425000
0,
#430000
b11001000 g
b1000111110010111 *
b1000111110010111 A
b1000111110010111 T
b1000111110010111 ]
1,
#435000
0,
#440000
b11000111 g
b1000111110011000 *
b1000111110011000 A
b1000111110011000 T
b1000111110011000 ]
1,
#445000
0,
#450000
b11000110 g
b1000111110011001 *
b1000111110011001 A
b1000111110011001 T
b1000111110011001 ]
1,
#455000
0,
#460000
b11000101 g
b1000111110011010 *
b1000111110011010 A
b1000111110011010 T
b1000111110011010 ]
1,
#465000
0,
#470000
b11000100 g
b1000111110011011 *
b1000111110011011 A
b1000111110011011 T
b1000111110011011 ]
1,
#475000
0,
#480000
b11000011 g
b1000111110011100 *
b1000111110011100 A
b1000111110011100 T
b1000111110011100 ]
1,
#485000
0,
#490000
b11000010 g
b1000111110011101 *
b1000111110011101 A
b1000111110011101 T
b1000111110011101 ]
1,
#495000
0,
#500000
b11000001 g
b1000111110011110 *
b1000111110011110 A
b1000111110011110 T
b1000111110011110 ]
1,
#505000
0,
#510000
b11000000 g
b1000111110011111 *
b1000111110011111 A
b1000111110011111 T
b1000111110011111 ]
1,
#515000
0,
#520000
b10111111 g
b1000111110100000 *
b1000111110100000 A
b1000111110100000 T
b1000111110100000 ]
1,
#525000
0,
#530000
b10111110 g
b1000111110100001 *
b1000111110100001 A
b1000111110100001 T
b1000111110100001 ]
1,
#535000
0,
#540000
b10111101 g
b1000111110100010 *
b1000111110100010 A
b1000111110100010 T
b1000111110100010 ]
1,
#545000
0,
#550000
b10111100 g
b1000111110100011 *
b1000111110100011 A
b1000111110100011 T
b1000111110100011 ]
1,
#555000
0,
#560000
b10111011 g
b1000111110100100 *
b1000111110100100 A
b1000111110100100 T
b1000111110100100 ]
1,
#565000
0,
#570000
b10111010 g
b1000111110100101 *
b1000111110100101 A
b1000111110100101 T
b1000111110100101 ]
1,
#575000
0,
#580000
b10111001 g
b1000111110100110 *
b1000111110100110 A
b1000111110100110 T
b1000111110100110 ]
1,
#585000
0,
#590000
b10111000 g
b1000111110100111 *
b1000111110100111 A
b1000111110100111 T
b1000111110100111 ]
1,
#595000
0,
#600000
b10110111 g
b1000111110101000 *
b1000111110101000 A
b1000111110101000 T
b1000111110101000 ]
1,
#605000
0,
#610000
b10110110 g
b1000111110101001 *
b1000111110101001 A
b1000111110101001 T
b1000111110101001 ]
1,
#615000
0,
#620000
b10110101 g
b1000111110101010 *
b1000111110101010 A
b1000111110101010 T
b1000111110101010 ]
1,
#625000
0,
#630000
b10110100 g
b1000111110101011 *
b1000111110101011 A
b1000111110101011 T
b1000111110101011 ]
1,
#635000
0,
#640000
b10110011 g
b1000111110101100 *
b1000111110101100 A
b1000111110101100 T
b1000111110101100 ]
1,
#645000
0,
#650000
b10110010 g
b1000111110101101 *
b1000111110101101 A
b1000111110101101 T
b1000111110101101 ]
1,
#655000
0,
#660000
b10110001 g
b1000111110101110 *
b1000111110101110 A
b1000111110101110 T
b1000111110101110 ]
1,
#665000
0,
#670000
b10110000 g
b1000111110101111 *
b1000111110101111 A
b1000111110101111 T
b1000111110101111 ]
1,
#675000
0,
#680000
b10101111 g
b1000111110110000 *
b1000111110110000 A
b1000111110110000 T
b1000111110110000 ]
1,
#685000
0,
#690000
b10101110 g
b1000111110110001 *
b1000111110110001 A
b1000111110110001 T
b1000111110110001 ]
1,
#695000
0,
#700000
b10101101 g
b1000111110110010 *
b1000111110110010 A
b1000111110110010 T
b1000111110110010 ]
1,
#705000
0,
#710000
b10101100 g
b1000111110110011 *
b1000111110110011 A
b1000111110110011 T
b1000111110110011 ]
1,
#715000
0,
#720000
b10101011 g
b1000111110110100 *
b1000111110110100 A
b1000111110110100 T
b1000111110110100 ]
1,
#725000
0,
#730000
b10101010 g
b1000111110110101 *
b1000111110110101 A
b1000111110110101 T
b1000111110110101 ]
1,
#735000
0,
#740000
b10101001 g
b1000111110110110 *
b1000111110110110 A
b1000111110110110 T
b1000111110110110 ]
1,
#745000
0,
#750000
b10101000 g
b1000111110110111 *
b1000111110110111 A
b1000111110110111 T
b1000111110110111 ]
1,
#755000
0,
#760000
b10100111 g
b1000111110111000 *
b1000111110111000 A
b1000111110111000 T
b1000111110111000 ]
1,
#765000
0,
#770000
b10100110 g
b1000111110111001 *
b1000111110111001 A
b1000111110111001 T
b1000111110111001 ]
1,
#775000
0,
#780000
b10100101 g
b1000111110111010 *
b1000111110111010 A
b1000111110111010 T
b1000111110111010 ]
1,
#785000
0,
#790000
b10100100 g
b1000111110111011 *
b1000111110111011 A
b1000111110111011 T
b1000111110111011 ]
b11111111 V
1,
#795000
0,
#800000
b11111111 $
b11111111 R
b11111111 Y
b10100011 g
b1000111110111100 *
b1000111110111100 A
b1000111110111100 T
b1000111110111100 ]
1,
#805000
0,
#810000
b10100010 g
b1000111110111101 *
b1000111110111101 A
b1000111110111101 T
b1000111110111101 ]
1,
#815000
0,
#820000
b10100001 g
b1000111110111110 *
b1000111110111110 A
b1000111110111110 T
b1000111110111110 ]
1,
#825000
0,
#830000
b10100000 g
b1000111110111111 *
b1000111110111111 A
b1000111110111111 T
b1000111110111111 ]
1,
#835000
0,
#840000
b10011111 g
b1000111111000000 *
b1000111111000000 A
b1000111111000000 T
b1000111111000000 ]
1,
#845000
0,
#850000
b10011110 g
b1000111111000001 *
b1000111111000001 A
b1000111111000001 T
b1000111111000001 ]
1,
#855000
0,
#860000
b10011101 g
b1000111111000010 *
b1000111111000010 A
b1000111111000010 T
b1000111111000010 ]
1,
#865000
0,
#870000
b10011100 g
b1000111111000011 *
b1000111111000011 A
b1000111111000011 T
b1000111111000011 ]
1,
#875000
0,
#880000
b10011011 g
b1000111111000100 *
b1000111111000100 A
b1000111111000100 T
b1000111111000100 ]
1,
#885000
0,
#890000
b10011010 g
b1000111111000101 *
b1000111111000101 A
b1000111111000101 T
b1000111111000101 ]
1,
#895000
0,
#900000
b0 V
b10011001 g
b1000111111000110 *
b1000111111000110 A
b1000111111000110 T
b1000111111000110 ]
1,
#905000
0,
#910000
b10011000 g
b1000111111000111 *
b1000111111000111 A
b1000111111000111 T
b1000111111000111 ]
b0 $
b0 R
b0 Y
1,
#915000
0,
#920000
b10010111 g
b1000111111001000 *
b1000111111001000 A
b1000111111001000 T
b1000111111001000 ]
1,
#925000
0,
#930000
b10010110 g
b1000111111001001 *
b1000111111001001 A
b1000111111001001 T
b1000111111001001 ]
1,
#935000
0,
#940000
b10010101 g
b1000111111001010 *
b1000111111001010 A
b1000111111001010 T
b1000111111001010 ]
1,
#945000
0,
#950000
b10010100 g
b1000111111001011 *
b1000111111001011 A
b1000111111001011 T
b1000111111001011 ]
b11111111 C
1,
#955000
0,
#960000
1Z
1#
b11111111 &
b11111111 %
b11111111 ?
b11111111 F
b10010011 g
b1000111111001100 *
b1000111111001100 A
b1000111111001100 T
b1000111111001100 ]
1,
#965000
0,
#970000
b10010010 g
b1000000000000000000000000000000000000000000000000000000000000000000000000000000000000000000000000000000000000000000000000000000000000000000000000000 j
b1000000000000000000000000000000000000000000000000000000000000000000000000000000000000000000000000000000000000000000000000000000000000000000000000000 l
b1000111111001101 *
b1000111111001101 A
b1000111111001101 T
b1000111111001101 ]
b11111111 V
1,
#975000
0,
#980000
b11111111 $
b11111111 R
b11111111 Y
b0 V
b10010001 g
b1100000000000000000000000000000000000000000000000000000000000000000000000000000000000000000000000000000000000000000000000000000000000000000000000000 j
b1100000000000000000000000000000000000000000000000000000000000000000000000000000000000000000000000000000000000000000000000000000000000000000000000000 l
b1000111111001110 *
b1000111111001110 A
b1000111111001110 T
b1000111111001110 ]
1,
#985000
0,
#990000
b10010000 g
b1110000000000000000000000000000000000000000000000000000000000000000000000000000000000000000000000000000000000000000000000000000000000000000000000000 j
b1110000000000000000000000000000000000000000000000000000000000000000000000000000000000000000000000000000000000000000000000000000000000000000000000000 l
b1000111111001111 *
b1000111111001111 A
b1000111111001111 T
b1000111111001111 ]
b0 $
b0 R
b0 Y
1,
#995000
0,
#1000000
b10001111 g
b1111000000000000000000000000000000000000000000000000000000000000000000000000000000000000000000000000000000000000000000000000000000000000000000000000 j
b1111000000000000000000000000000000000000000000000000000000000000000000000000000000000000000000000000000000000000000000000000000000000000000000000000 l
b1000111111010000 *
b1000111111010000 A
b1000111111010000 T
b1000111111010000 ]
1,
#1005000
0,
#1010000
b10001110 g
b1111100000000000000000000000000000000000000000000000000000000000000000000000000000000000000000000000000000000000000000000000000000000000000000000000 j
b1111100000000000000000000000000000000000000000000000000000000000000000000000000000000000000000000000000000000000000000000000000000000000000000000000 l
b1000111111010001 *
b1000111111010001 A
b1000111111010001 T
b1000111111010001 ]
1,
#1015000
0,
#1020000
b10001101 g
b1111110000000000000000000000000000000000000000000000000000000000000000000000000000000000000000000000000000000000000000000000000000000000000000000000 j
b1111110000000000000000000000000000000000000000000000000000000000000000000000000000000000000000000000000000000000000000000000000000000000000000000000 l
b1000111111010010 *
b1000111111010010 A
b1000111111010010 T
b1000111111010010 ]
1,
#1025000
0,
#1030000
b10001100 g
b1111111000000000000000000000000000000000000000000000000000000000000000000000000000000000000000000000000000000000000000000000000000000000000000000000 j
b1111111000000000000000000000000000000000000000000000000000000000000000000000000000000000000000000000000000000000000000000000000000000000000000000000 l
b1000111111010011 *
b1000111111010011 A
b1000111111010011 T
b1000111111010011 ]
1,
#1035000
0,
#1040000
b10001011 g
b1111111100000000000000000000000000000000000000000000000000000000000000000000000000000000000000000000000000000000000000000000000000000000000000000000 j
b1111111100000000000000000000000000000000000000000000000000000000000000000000000000000000000000000000000000000000000000000000000000000000000000000000 l
b1000111111010100 *
b1000111111010100 A
b1000111111010100 T
b1000111111010100 ]
1,
#1045000
0,
#1050000
b10001010 g
b1111111110000000000000000000000000000000000000000000000000000000000000000000000000000000000000000000000000000000000000000000000000000000000000000000 j
b1111111110000000000000000000000000000000000000000000000000000000000000000000000000000000000000000000000000000000000000000000000000000000000000000000 l
b1000111111010101 *
b1000111111010101 A
b1000111111010101 T
b1000111111010101 ]
1,
#1055000
0,
#1060000
b10001001 g
b1111111111000000000000000000000000000000000000000000000000000000000000000000000000000000000000000000000000000000000000000000000000000000000000000000 j
b1111111111000000000000000000000000000000000000000000000000000000000000000000000000000000000000000000000000000000000000000000000000000000000000000000 l
b1000111111010110 *
b1000111111010110 A
b1000111111010110 T
b1000111111010110 ]
1,
#1065000
0,
#1070000
b10001000 g
b1111111111100000000000000000000000000000000000000000000000000000000000000000000000000000000000000000000000000000000000000000000000000000000000000000 j
b1111111111100000000000000000000000000000000000000000000000000000000000000000000000000000000000000000000000000000000000000000000000000000000000000000 l
b1000111111010111 *
b1000111111010111 A
b1000111111010111 T
b1000111111010111 ]
1,
#1075000
0,
#1080000
b10000111 g
b1111111111110000000000000000000000000000000000000000000000000000000000000000000000000000000000000000000000000000000000000000000000000000000000000000 j
b1111111111110000000000000000000000000000000000000000000000000000000000000000000000000000000000000000000000000000000000000000000000000000000000000000 l
b1000111111011000 *
b1000111111011000 A
b1000111111011000 T
b1000111111011000 ]
1,
#1085000
0,
#1090000
b10000110 g
b1111111111111000000000000000000000000000000000000000000000000000000000000000000000000000000000000000000000000000000000000000000000000000000000000000 j
b1111111111111000000000000000000000000000000000000000000000000000000000000000000000000000000000000000000000000000000000000000000000000000000000000000 l
b1000111111011001 *
b1000111111011001 A
b1000111111011001 T
b1000111111011001 ]
1,
#1095000
0,
#1100000
b10000101 g
b1111111111111100000000000000000000000000000000000000000000000000000000000000000000000000000000000000000000000000000000000000000000000000000000000000 j
b1111111111111100000000000000000000000000000000000000000000000000000000000000000000000000000000000000000000000000000000000000000000000000000000000000 l
b1000111111011010 *
b1000111111011010 A
b1000111111011010 T
b1000111111011010 ]
1,
#1105000
0,
#1110000
b10000100 g
b1111111111111110000000000000000000000000000000000000000000000000000000000000000000000000000000000000000000000000000000000000000000000000000000000000 j
b1111111111111110000000000000000000000000000000000000000000000000000000000000000000000000000000000000000000000000000000000000000000000000000000000000 l
b1000111111011011 *
b1000111111011011 A
b1000111111011011 T
b1000111111011011 ]
1,
#1115000
0,
#1120000
b10000011 g
b1111111111111111000000000000000000000000000000000000000000000000000000000000000000000000000000000000000000000000000000000000000000000000000000000000 j
b1111111111111111000000000000000000000000000000000000000000000000000000000000000000000000000000000000000000000000000000000000000000000000000000000000 l
b1000111111011100 *
b1000111111011100 A
b1000111111011100 T
b1000111111011100 ]
1,
#1125000
0,
#1130000
b10000010 g
b1111111111111111100000000000000000000000000000000000000000000000000000000000000000000000000000000000000000000000000000000000000000000000000000000000 j
b1111111111111111100000000000000000000000000000000000000000000000000000000000000000000000000000000000000000000000000000000000000000000000000000000000 l
b1000111111011101 *
b1000111111011101 A
b1000111111011101 T
b1000111111011101 ]
1,
#1135000
0,
#1140000
b11111111 V
b10000001 g
b1111111111111111110000000000000000000000000000000000000000000000000000000000000000000000000000000000000000000000000000000000000000000000000000000000 j
b1111111111111111110000000000000000000000000000000000000000000000000000000000000000000000000000000000000000000000000000000000000000000000000000000000 l
b1000111111011110 *
b1000111111011110 A
b1000111111011110 T
b1000111111011110 ]
1,
#1145000
0,
#1150000
b10000000 g
b1111111111111111111000000000000000000000000000000000000000000000000000000000000000000000000000000000000000000000000000000000000000000000000000000000 j
b1111111111111111111000000000000000000000000000000000000000000000000000000000000000000000000000000000000000000000000000000000000000000000000000000000 l
b1000111111011111 *
b1000111111011111 A
b1000111111011111 T
b1000111111011111 ]
b0 V
b11111111 $
b11111111 R
b11111111 Y
1,
#1155000
0,
#1160000
b0 $
b0 R
b0 Y
b1111111 g
b1111111111111111111100000000000000000000000000000000000000000000000000000000000000000000000000000000000000000000000000000000000000000000000000000000 j
b1111111111111111111100000000000000000000000000000000000000000000000000000000000000000000000000000000000000000000000000000000000000000000000000000000 l
b1000111111100000 *
b1000111111100000 A
b1000111111100000 T
b1000111111100000 ]
1,
#1165000
0,
#1170000
b1111110 g
b1111111111111111111110000000000000000000000000000000000000000000000000000000000000000000000000000000000000000000000000000000000000000000000000000000 j
b1111111111111111111110000000000000000000000000000000000000000000000000000000000000000000000000000000000000000000000000000000000000000000000000000000 l
b1000111111100001 *
b1000111111100001 A
b1000111111100001 T
b1000111111100001 ]
1,
#1175000
0,
#1180000
b1111101 g
b1111111111111111111111000000000000000000000000000000000000000000000000000000000000000000000000000000000000000000000000000000000000000000000000000000 j
b1111111111111111111111000000000000000000000000000000000000000000000000000000000000000000000000000000000000000000000000000000000000000000000000000000 l
b1000111111100010 *
b1000111111100010 A
b1000111111100010 T
b1000111111100010 ]
1,
#1185000
0,
#1190000
b1111100 g
b1111111111111111111111100000000000000000000000000000000000000000000000000000000000000000000000000000000000000000000000000000000000000000000000000000 j
b1111111111111111111111100000000000000000000000000000000000000000000000000000000000000000000000000000000000000000000000000000000000000000000000000000 l
b1000111111100011 *
b1000111111100011 A
b1000111111100011 T
b1000111111100011 ]
1,
#1195000
0,
#1200000
b1111011 g
b1111111111111111111111110000000000000000000000000000000000000000000000000000000000000000000000000000000000000000000000000000000000000000000000000000 j
b1111111111111111111111110000000000000000000000000000000000000000000000000000000000000000000000000000000000000000000000000000000000000000000000000000 l
b1000111111100100 *
b1000111111100100 A
b1000111111100100 T
b1000111111100100 ]
1,
#1205000
0,
#1210000
b1111010 g
b1111111111111111111111111000000000000000000000000000000000000000000000000000000000000000000000000000000000000000000000000000000000000000000000000000 j
b1111111111111111111111111000000000000000000000000000000000000000000000000000000000000000000000000000000000000000000000000000000000000000000000000000 l
b1000111111100101 *
b1000111111100101 A
b1000111111100101 T
b1000111111100101 ]
1,
#1215000
0,
#1220000
b1111001 g
b1111111111111111111111111100000000000000000000000000000000000000000000000000000000000000000000000000000000000000000000000000000000000000000000000000 j
b1111111111111111111111111100000000000000000000000000000000000000000000000000000000000000000000000000000000000000000000000000000000000000000000000000 l
b1000111111100110 *
b1000111111100110 A
b1000111111100110 T
b1000111111100110 ]
1,
#1225000
0,
#1230000
b1111000 g
b1111111111111111111111111110000000000000000000000000000000000000000000000000000000000000000000000000000000000000000000000000000000000000000000000000 j
b1111111111111111111111111110000000000000000000000000000000000000000000000000000000000000000000000000000000000000000000000000000000000000000000000000 l
b1000111111100111 *
b1000111111100111 A
b1000111111100111 T
b1000111111100111 ]
b0 C
1,
#1235000
0,
#1240000
0Z
0#
b0 &
b0 %
b0 ?
b0 F
b1110111 g
b1111111111111111111111111111000000000000000000000000000000000000000000000000000000000000000000000000000000000000000000000000000000000000000000000000 j
b1111111111111111111111111111000000000000000000000000000000000000000000000000000000000000000000000000000000000000000000000000000000000000000000000000 l
b1000111111101000 *
b1000111111101000 A
b1000111111101000 T
b1000111111101000 ]
1,
#1245000
0,
#1250000
b1110110 g
b1000111111101001 *
b1000111111101001 A
b1000111111101001 T
b1000111111101001 ]
1,
#1255000
0,
#1260000
b1110101 g
b1000111111101010 *
b1000111111101010 A
b1000111111101010 T
b1000111111101010 ]
1,
#1265000
0,
#1270000
b1110100 g
b1000111111101011 *
b1000111111101011 A
b1000111111101011 T
b1000111111101011 ]
1,
#1275000
0,
#1280000
b1110011 g
b1000111111101100 *
b1000111111101100 A
b1000111111101100 T
b1000111111101100 ]
1,
#1285000
0,
#1290000
b1110010 g
b1000111111101101 *
b1000111111101101 A
b1000111111101101 T
b1000111111101101 ]
1,
#1295000
0,
#1300000
b1110001 g
b1000111111101110 *
b1000111111101110 A
b1000111111101110 T
b1000111111101110 ]
1,
#1305000
0,
#1310000
b1110000 g
b1000111111101111 *
b1000111111101111 A
b1000111111101111 T
b1000111111101111 ]
1,
#1315000
0,
#1320000
b11111111 C
b1101111 g
b1000111111110000 *
b1000111111110000 A
b1000111111110000 T
b1000111111110000 ]
1,
#1325000
0,
#1330000
1Z
1#
b11111111 &
b1101110 g
b1000111111110001 *
b1000111111110001 A
b1000111111110001 T
b1000111111110001 ]
b11111111 %
b11111111 ?
b11111111 F
1,
#1335000
0,
#1340000
b1101101 g
b1111111111111111111111111111000000000100000000000000000000000000000000000000000000000000000000000000000000000000000000000000000000000000000000000000 j
b1111111111111111111111111111000000000100000000000000000000000000000000000000000000000000000000000000000000000000000000000000000000000000000000000000 l
b1000111111110010 *
b1000111111110010 A
b1000111111110010 T
b1000111111110010 ]
1,
#1345000
0,
#1350000
b1101100 g
b1111111111111111111111111111000000000110000000000000000000000000000000000000000000000000000000000000000000000000000000000000000000000000000000000000 j
b1111111111111111111111111111000000000110000000000000000000000000000000000000000000000000000000000000000000000000000000000000000000000000000000000000 l
b1000111111110011 *
b1000111111110011 A
b1000111111110011 T
b1000111111110011 ]
1,
#1355000
0,
#1360000
b1101011 g
b1111111111111111111111111111000000000111000000000000000000000000000000000000000000000000000000000000000000000000000000000000000000000000000000000000 j
b1111111111111111111111111111000000000111000000000000000000000000000000000000000000000000000000000000000000000000000000000000000000000000000000000000 l
b1000111111110100 *
b1000111111110100 A
b1000111111110100 T
b1000111111110100 ]
1,
#1365000
0,
#1370000
b1101010 g
b1111111111111111111111111111000000000111100000000000000000000000000000000000000000000000000000000000000000000000000000000000000000000000000000000000 j
b1111111111111111111111111111000000000111100000000000000000000000000000000000000000000000000000000000000000000000000000000000000000000000000000000000 l
b1000111111110101 *
b1000111111110101 A
b1000111111110101 T
b1000111111110101 ]
1,
#1375000
0,
#1380000
b1101001 g
b1111111111111111111111111111000000000111110000000000000000000000000000000000000000000000000000000000000000000000000000000000000000000000000000000000 j
b1111111111111111111111111111000000000111110000000000000000000000000000000000000000000000000000000000000000000000000000000000000000000000000000000000 l
b1000111111110110 *
b1000111111110110 A
b1000111111110110 T
b1000111111110110 ]
1,
#1385000
0,
